{
  "runtimeTarget": {
    "name": ".NETCoreApp,Version=v3.1",
    "signature": ""
  },
  "compilationOptions": {
    "defines": [
      "TRACE",
      "RELEASE",
      "NETCOREAPP",
      "NETCOREAPP3_1"
    ],
    "languageVersion": "",
    "platform": "",
    "allowUnsafe": false,
    "warningsAsErrors": false,
    "optimize": true,
    "keyFile": "",
    "emitEntryPoint": true,
    "xmlDoc": false,
    "debugType": "portable"
  },
  "targets": {
    ".NETCoreApp,Version=v3.1": {
      "HelloMvc/1.0.0": {
        "dependencies": {
          "Microsoft.AspNetCore.Antiforgery": "3.1.0.0",
          "Microsoft.AspNetCore.Authentication.Abstractions": "3.1.0.0",
          "Microsoft.AspNetCore.Authentication.Cookies": "3.1.0.0",
          "Microsoft.AspNetCore.Authentication.Core": "3.1.0.0",
          "Microsoft.AspNetCore.Authentication": "3.1.0.0",
          "Microsoft.AspNetCore.Authentication.OAuth": "3.1.0.0",
          "Microsoft.AspNetCore.Authorization": "3.1.0.0",
          "Microsoft.AspNetCore.Authorization.Policy": "3.1.0.0",
          "Microsoft.AspNetCore.Components.Authorization": "3.1.0.0",
          "Microsoft.AspNetCore.Components": "3.1.0.0",
          "Microsoft.AspNetCore.Components.Forms": "3.1.0.0",
          "Microsoft.AspNetCore.Components.Server": "3.1.0.0",
          "Microsoft.AspNetCore.Components.Web": "3.1.0.0",
          "Microsoft.AspNetCore.Connections.Abstractions": "3.1.0.0",
          "Microsoft.AspNetCore.CookiePolicy": "3.1.0.0",
          "Microsoft.AspNetCore.Cors": "3.1.0.0",
          "Microsoft.AspNetCore.Cryptography.Internal": "3.1.0.0",
          "Microsoft.AspNetCore.Cryptography.KeyDerivation": "3.1.0.0",
          "Microsoft.AspNetCore.DataProtection.Abstractions": "3.1.0.0",
          "Microsoft.AspNetCore.DataProtection": "3.1.0.0",
          "Microsoft.AspNetCore.DataProtection.Extensions": "3.1.0.0",
          "Microsoft.AspNetCore.Diagnostics.Abstractions": "3.1.0.0",
          "Microsoft.AspNetCore.Diagnostics": "3.1.0.0",
          "Microsoft.AspNetCore.Diagnostics.HealthChecks": "3.1.0.0",
          "Microsoft.AspNetCore": "3.1.0.0",
          "Microsoft.AspNetCore.HostFiltering": "3.1.0.0",
          "Microsoft.AspNetCore.Hosting.Abstractions": "3.1.0.0",
          "Microsoft.AspNetCore.Hosting": "3.1.0.0",
          "Microsoft.AspNetCore.Hosting.Server.Abstractions": "3.1.0.0",
          "Microsoft.AspNetCore.Html.Abstractions": "3.1.0.0",
          "Microsoft.AspNetCore.Http.Abstractions": "3.1.0.0",
          "Microsoft.AspNetCore.Http.Connections.Common": "3.1.0.0",
          "Microsoft.AspNetCore.Http.Connections": "3.1.0.0",
          "Microsoft.AspNetCore.Http": "3.1.0.0",
          "Microsoft.AspNetCore.Http.Extensions": "3.1.0.0",
          "Microsoft.AspNetCore.Http.Features": "3.1.0.0",
          "Microsoft.AspNetCore.HttpOverrides": "3.1.0.0",
          "Microsoft.AspNetCore.HttpsPolicy": "3.1.0.0",
          "Microsoft.AspNetCore.Identity": "3.1.0.0",
          "Microsoft.AspNetCore.Localization": "3.1.0.0",
          "Microsoft.AspNetCore.Localization.Routing": "3.1.0.0",
          "Microsoft.AspNetCore.Metadata": "3.1.0.0",
          "Microsoft.AspNetCore.Mvc.Abstractions": "3.1.0.0",
          "Microsoft.AspNetCore.Mvc.ApiExplorer": "3.1.0.0",
          "Microsoft.AspNetCore.Mvc.Core": "3.1.0.0",
          "Microsoft.AspNetCore.Mvc.Cors": "3.1.0.0",
          "Microsoft.AspNetCore.Mvc.DataAnnotations": "3.1.0.0",
          "Microsoft.AspNetCore.Mvc": "3.1.0.0",
          "Microsoft.AspNetCore.Mvc.Formatters.Json": "3.1.0.0",
          "Microsoft.AspNetCore.Mvc.Formatters.Xml": "3.1.0.0",
          "Microsoft.AspNetCore.Mvc.Localization": "3.1.0.0",
          "Microsoft.AspNetCore.Mvc.Razor": "3.1.0.0",
          "Microsoft.AspNetCore.Mvc.RazorPages": "3.1.0.0",
          "Microsoft.AspNetCore.Mvc.TagHelpers": "3.1.0.0",
          "Microsoft.AspNetCore.Mvc.ViewFeatures": "3.1.0.0",
          "Microsoft.AspNetCore.Razor": "3.1.0.0",
          "Microsoft.AspNetCore.Razor.Runtime": "3.1.0.0",
          "Microsoft.AspNetCore.ResponseCaching.Abstractions": "3.1.0.0",
          "Microsoft.AspNetCore.ResponseCaching": "3.1.0.0",
          "Microsoft.AspNetCore.ResponseCompression": "3.1.0.0",
          "Microsoft.AspNetCore.Rewrite": "3.1.0.0",
          "Microsoft.AspNetCore.Routing.Abstractions": "3.1.0.0",
          "Microsoft.AspNetCore.Routing": "3.1.0.0",
          "Microsoft.AspNetCore.Server.HttpSys": "3.1.0.0",
          "Microsoft.AspNetCore.Server.IIS": "3.1.0.0",
          "Microsoft.AspNetCore.Server.IISIntegration": "3.1.0.0",
          "Microsoft.AspNetCore.Server.Kestrel.Core": "3.1.0.0",
          "Microsoft.AspNetCore.Server.Kestrel": "3.1.0.0",
          "Microsoft.AspNetCore.Server.Kestrel.Transport.Sockets": "3.1.0.0",
          "Microsoft.AspNetCore.Session": "3.1.0.0",
          "Microsoft.AspNetCore.SignalR.Common": "3.1.0.0",
          "Microsoft.AspNetCore.SignalR.Core": "3.1.0.0",
          "Microsoft.AspNetCore.SignalR": "3.1.0.0",
          "Microsoft.AspNetCore.SignalR.Protocols.Json": "3.1.0.0",
          "Microsoft.AspNetCore.StaticFiles": "3.1.0.0",
          "Microsoft.AspNetCore.WebSockets": "3.1.0.0",
          "Microsoft.AspNetCore.WebUtilities": "3.1.0.0",
          "Microsoft.CSharp": "4.0.0.0",
          "Microsoft.Extensions.Caching.Abstractions": "3.1.0.0",
          "Microsoft.Extensions.Caching.Memory": "3.1.0.0",
          "Microsoft.Extensions.Configuration.Abstractions": "3.1.0.0",
          "Microsoft.Extensions.Configuration.Binder": "3.1.0.0",
          "Microsoft.Extensions.Configuration.CommandLine": "3.1.0.0",
          "Microsoft.Extensions.Configuration": "3.1.0.0",
          "Microsoft.Extensions.Configuration.EnvironmentVariables": "3.1.0.0",
          "Microsoft.Extensions.Configuration.FileExtensions": "3.1.0.0",
          "Microsoft.Extensions.Configuration.Ini": "3.1.0.0",
          "Microsoft.Extensions.Configuration.Json": "3.1.0.0",
          "Microsoft.Extensions.Configuration.KeyPerFile": "3.1.0.0",
          "Microsoft.Extensions.Configuration.UserSecrets": "3.1.0.0",
          "Microsoft.Extensions.Configuration.Xml": "3.1.0.0",
          "Microsoft.Extensions.DependencyInjection.Abstractions": "3.1.0.0",
          "Microsoft.Extensions.DependencyInjection": "3.1.0.0",
          "Microsoft.Extensions.Diagnostics.HealthChecks.Abstractions": "3.1.0.0",
          "Microsoft.Extensions.Diagnostics.HealthChecks": "3.1.0.0",
          "Microsoft.Extensions.FileProviders.Abstractions": "3.1.0.0",
          "Microsoft.Extensions.FileProviders.Composite": "3.1.0.0",
          "Microsoft.Extensions.FileProviders.Embedded": "3.1.0.0",
          "Microsoft.Extensions.FileProviders.Physical": "3.1.0.0",
          "Microsoft.Extensions.FileSystemGlobbing": "3.1.0.0",
          "Microsoft.Extensions.Hosting.Abstractions": "3.1.0.0",
          "Microsoft.Extensions.Hosting": "3.1.0.0",
          "Microsoft.Extensions.Http": "3.1.0.0",
          "Microsoft.Extensions.Identity.Core": "3.1.0.0",
          "Microsoft.Extensions.Identity.Stores": "3.1.0.0",
          "Microsoft.Extensions.Localization.Abstractions": "3.1.0.0",
          "Microsoft.Extensions.Localization": "3.1.0.0",
          "Microsoft.Extensions.Logging.Abstractions": "3.1.0.0",
          "Microsoft.Extensions.Logging.Configuration": "3.1.0.0",
          "Microsoft.Extensions.Logging.Console": "3.1.0.0",
          "Microsoft.Extensions.Logging.Debug": "3.1.0.0",
          "Microsoft.Extensions.Logging": "3.1.0.0",
          "Microsoft.Extensions.Logging.EventLog": "3.1.0.0",
          "Microsoft.Extensions.Logging.EventSource": "3.1.0.0",
          "Microsoft.Extensions.Logging.TraceSource": "3.1.0.0",
          "Microsoft.Extensions.ObjectPool": "3.1.0.0",
          "Microsoft.Extensions.Options.ConfigurationExtensions": "3.1.0.0",
          "Microsoft.Extensions.Options.DataAnnotations": "3.1.0.0",
          "Microsoft.Extensions.Options": "3.1.0.0",
          "Microsoft.Extensions.Primitives": "3.1.0.0",
          "Microsoft.Extensions.WebEncoders": "3.1.0.0",
          "Microsoft.JSInterop": "3.1.0.0",
          "Microsoft.Net.Http.Headers": "3.1.0.0",
          "Microsoft.VisualBasic.Core": "10.0.5.0",
          "Microsoft.VisualBasic": "10.0.0.0",
          "Microsoft.Win32.Primitives": "4.1.2.0",
          "mscorlib": "4.0.0.0",
          "netstandard": "2.1.0.0",
          "System.AppContext": "4.2.2.0",
          "System.Buffers": "4.0.2.0",
          "System.Collections.Concurrent": "4.0.15.0",
          "System.Collections": "4.1.2.0",
          "System.Collections.Immutable": "1.2.5.0",
          "System.Collections.NonGeneric": "4.1.2.0",
          "System.Collections.Specialized": "4.1.2.0",
          "System.ComponentModel.Annotations": "4.3.1.0",
          "System.ComponentModel.DataAnnotations": "4.0.0.0",
          "System.ComponentModel": "4.0.4.0",
          "System.ComponentModel.EventBasedAsync": "4.1.2.0",
          "System.ComponentModel.Primitives": "4.2.2.0",
          "System.ComponentModel.TypeConverter": "4.2.2.0",
          "System.Configuration": "4.0.0.0",
          "System.Console": "4.1.2.0",
          "System.Core": "4.0.0.0",
          "System.Data.Common": "4.2.2.0",
          "System.Data.DataSetExtensions": "4.0.1.0",
          "System.Data": "4.0.0.0",
          "System.Diagnostics.Contracts": "4.0.4.0",
          "System.Diagnostics.Debug": "4.1.2.0",
          "System.Diagnostics.DiagnosticSource": "4.0.5.0",
          "System.Diagnostics.FileVersionInfo": "4.0.4.0",
          "System.Diagnostics.Process": "4.2.2.0",
          "System.Diagnostics.StackTrace": "4.1.2.0",
          "System.Diagnostics.TextWriterTraceListener": "4.1.2.0",
          "System.Diagnostics.Tools": "4.1.2.0",
          "System.Diagnostics.TraceSource": "4.1.2.0",
          "System.Diagnostics.Tracing": "4.2.2.0",
          "System": "4.0.0.0",
          "System.Drawing": "4.0.0.0",
          "System.Drawing.Primitives": "4.2.1.0",
          "System.Dynamic.Runtime": "4.1.2.0",
          "System.Globalization.Calendars": "4.1.2.0",
          "System.Globalization": "4.1.2.0",
          "System.Globalization.Extensions": "4.1.2.0",
          "System.IO.Compression.Brotli": "4.2.2.0",
          "System.IO.Compression": "4.2.2.0",
          "System.IO.Compression.FileSystem": "4.0.0.0",
          "System.IO.Compression.ZipFile": "4.0.5.0",
          "System.IO": "4.2.2.0",
          "System.IO.FileSystem": "4.1.2.0",
          "System.IO.FileSystem.DriveInfo": "4.1.2.0",
          "System.IO.FileSystem.Primitives": "4.1.2.0",
          "System.IO.FileSystem.Watcher": "4.1.2.0",
          "System.IO.IsolatedStorage": "4.1.2.0",
          "System.IO.MemoryMappedFiles": "4.1.2.0",
          "System.IO.Pipes": "4.1.2.0",
          "System.IO.UnmanagedMemoryStream": "4.1.2.0",
          "System.Linq": "4.2.2.0",
          "System.Linq.Expressions": "4.2.2.0",
          "System.Linq.Parallel": "4.0.4.0",
          "System.Linq.Queryable": "4.0.4.0",
          "System.Memory": "4.2.1.0",
          "System.Net": "4.0.0.0",
          "System.Net.Http": "4.2.2.0",
          "System.Net.HttpListener": "4.0.2.0",
          "System.Net.Mail": "4.0.2.0",
          "System.Net.NameResolution": "4.1.2.0",
          "System.Net.NetworkInformation": "4.2.2.0",
          "System.Net.Ping": "4.1.2.0",
          "System.Net.Primitives": "4.1.2.0",
          "System.Net.Requests": "4.1.2.0",
          "System.Net.Security": "4.1.2.0",
          "System.Net.ServicePoint": "4.0.2.0",
          "System.Net.Sockets": "4.2.2.0",
          "System.Net.WebClient": "4.0.2.0",
          "System.Net.WebHeaderCollection": "4.1.2.0",
          "System.Net.WebProxy": "4.0.2.0",
          "System.Net.WebSockets.Client": "4.1.2.0",
          "System.Net.WebSockets": "4.1.2.0",
          "System.Numerics": "4.0.0.0",
          "System.Numerics.Vectors": "4.1.6.0",
          "System.ObjectModel": "4.1.2.0",
          "System.Reflection.DispatchProxy": "4.0.6.0",
          "System.Reflection": "4.2.2.0",
          "System.Reflection.Emit": "4.1.2.0",
          "System.Reflection.Emit.ILGeneration": "4.1.1.0",
          "System.Reflection.Emit.Lightweight": "4.1.1.0",
          "System.Reflection.Extensions": "4.1.2.0",
          "System.Reflection.Metadata": "1.4.5.0",
          "System.Reflection.Primitives": "4.1.2.0",
          "System.Reflection.TypeExtensions": "4.1.2.0",
          "System.Resources.Reader": "4.1.2.0",
          "System.Resources.ResourceManager": "4.1.2.0",
          "System.Resources.Writer": "4.1.2.0",
          "System.Runtime.CompilerServices.Unsafe": "4.0.6.0",
          "System.Runtime.CompilerServices.VisualC": "4.1.2.0",
          "System.Runtime": "4.2.2.0",
          "System.Runtime.Extensions": "4.2.2.0",
          "System.Runtime.Handles": "4.1.2.0",
          "System.Runtime.InteropServices": "4.2.2.0",
          "System.Runtime.InteropServices.RuntimeInformation": "4.0.4.0",
          "System.Runtime.InteropServices.WindowsRuntime": "4.0.4.0",
          "System.Runtime.Intrinsics": "4.0.1.0",
          "System.Runtime.Loader": "4.1.1.0",
          "System.Runtime.Numerics": "4.1.2.0",
          "System.Runtime.Serialization": "4.0.0.0",
          "System.Runtime.Serialization.Formatters": "4.0.4.0",
          "System.Runtime.Serialization.Json": "4.0.5.0",
          "System.Runtime.Serialization.Primitives": "4.2.2.0",
          "System.Runtime.Serialization.Xml": "4.1.5.0",
          "System.Security.Claims": "4.1.2.0",
          "System.Security.Cryptography.Algorithms": "4.3.2.0",
          "System.Security.Cryptography.Csp": "4.1.2.0",
          "System.Security.Cryptography.Encoding": "4.1.2.0",
          "System.Security.Cryptography.Primitives": "4.1.2.0",
          "System.Security.Cryptography.X509Certificates": "4.2.2.0",
          "System.Security": "4.0.0.0",
          "System.Security.Principal": "4.1.2.0",
          "System.Security.SecureString": "4.1.2.0",
          "System.ServiceModel.Web": "4.0.0.0",
          "System.ServiceProcess": "4.0.0.0",
          "System.Text.Encoding.CodePages": "4.1.3.0",
          "System.Text.Encoding": "4.1.2.0",
          "System.Text.Encoding.Extensions": "4.1.2.0",
          "System.Text.Encodings.Web": "4.0.5.0",
          "System.Text.Json": "4.0.1.0",
          "System.Text.RegularExpressions": "4.2.2.0",
          "System.Threading.Channels": "4.0.2.0",
          "System.Threading": "4.1.2.0",
          "System.Threading.Overlapped": "4.1.2.0",
          "System.Threading.Tasks.Dataflow": "4.6.5.0",
          "System.Threading.Tasks": "4.1.2.0",
          "System.Threading.Tasks.Extensions": "4.3.1.0",
          "System.Threading.Tasks.Parallel": "4.0.4.0",
          "System.Threading.Thread": "4.1.2.0",
          "System.Threading.ThreadPool": "4.1.2.0",
          "System.Threading.Timer": "4.1.2.0",
          "System.Transactions": "4.0.0.0",
          "System.Transactions.Local": "4.0.2.0",
          "System.ValueTuple": "4.0.3.0",
          "System.Web": "4.0.0.0",
          "System.Web.HttpUtility": "4.0.2.0",
          "System.Windows": "4.0.0.0",
          "System.Xml": "4.0.0.0",
          "System.Xml.Linq": "4.0.0.0",
          "System.Xml.ReaderWriter": "4.2.2.0",
          "System.Xml.Serialization": "4.0.0.0",
          "System.Xml.XDocument": "4.1.2.0",
          "System.Xml.XmlDocument": "4.1.2.0",
          "System.Xml.XmlSerializer": "4.1.2.0",
          "System.Xml.XPath": "4.1.2.0",
          "System.Xml.XPath.XDocument": "4.1.2.0",
          "WindowsBase": "4.0.0.0"
        },
        "runtime": {
          "HelloMvc.dll": {}
        },
        "compile": {
          "HelloMvc.dll": {}
        }
      },
      "Microsoft.AspNetCore.Antiforgery/3.1.0.0": {
        "compile": {
          "Microsoft.AspNetCore.Antiforgery.dll": {}
        },
        "compileOnly": true
      },
      "Microsoft.AspNetCore.Authentication.Abstractions/3.1.0.0": {
        "compile": {
          "Microsoft.AspNetCore.Authentication.Abstractions.dll": {}
        },
        "compileOnly": true
      },
      "Microsoft.AspNetCore.Authentication.Cookies/3.1.0.0": {
        "compile": {
          "Microsoft.AspNetCore.Authentication.Cookies.dll": {}
        },
        "compileOnly": true
      },
      "Microsoft.AspNetCore.Authentication.Core/3.1.0.0": {
        "compile": {
          "Microsoft.AspNetCore.Authentication.Core.dll": {}
        },
        "compileOnly": true
      },
      "Microsoft.AspNetCore.Authentication/3.1.0.0": {
        "compile": {
          "Microsoft.AspNetCore.Authentication.dll": {}
        },
        "compileOnly": true
      },
      "Microsoft.AspNetCore.Authentication.OAuth/3.1.0.0": {
        "compile": {
          "Microsoft.AspNetCore.Authentication.OAuth.dll": {}
        },
        "compileOnly": true
      },
      "Microsoft.AspNetCore.Authorization/3.1.0.0": {
        "compile": {
          "Microsoft.AspNetCore.Authorization.dll": {}
        },
        "compileOnly": true
      },
      "Microsoft.AspNetCore.Authorization.Policy/3.1.0.0": {
        "compile": {
          "Microsoft.AspNetCore.Authorization.Policy.dll": {}
        },
        "compileOnly": true
      },
      "Microsoft.AspNetCore.Components.Authorization/3.1.0.0": {
        "compile": {
          "Microsoft.AspNetCore.Components.Authorization.dll": {}
        },
        "compileOnly": true
      },
      "Microsoft.AspNetCore.Components/3.1.0.0": {
        "compile": {
          "Microsoft.AspNetCore.Components.dll": {}
        },
        "compileOnly": true
      },
      "Microsoft.AspNetCore.Components.Forms/3.1.0.0": {
        "compile": {
          "Microsoft.AspNetCore.Components.Forms.dll": {}
        },
        "compileOnly": true
      },
      "Microsoft.AspNetCore.Components.Server/3.1.0.0": {
        "compile": {
          "Microsoft.AspNetCore.Components.Server.dll": {}
        },
        "compileOnly": true
      },
      "Microsoft.AspNetCore.Components.Web/3.1.0.0": {
        "compile": {
          "Microsoft.AspNetCore.Components.Web.dll": {}
        },
        "compileOnly": true
      },
      "Microsoft.AspNetCore.Connections.Abstractions/3.1.0.0": {
        "compile": {
          "Microsoft.AspNetCore.Connections.Abstractions.dll": {}
        },
        "compileOnly": true
      },
      "Microsoft.AspNetCore.CookiePolicy/3.1.0.0": {
        "compile": {
          "Microsoft.AspNetCore.CookiePolicy.dll": {}
        },
        "compileOnly": true
      },
      "Microsoft.AspNetCore.Cors/3.1.0.0": {
        "compile": {
          "Microsoft.AspNetCore.Cors.dll": {}
        },
        "compileOnly": true
      },
      "Microsoft.AspNetCore.Cryptography.Internal/3.1.0.0": {
        "compile": {
          "Microsoft.AspNetCore.Cryptography.Internal.dll": {}
        },
        "compileOnly": true
      },
      "Microsoft.AspNetCore.Cryptography.KeyDerivation/3.1.0.0": {
        "compile": {
          "Microsoft.AspNetCore.Cryptography.KeyDerivation.dll": {}
        },
        "compileOnly": true
      },
      "Microsoft.AspNetCore.DataProtection.Abstractions/3.1.0.0": {
        "compile": {
          "Microsoft.AspNetCore.DataProtection.Abstractions.dll": {}
        },
        "compileOnly": true
      },
      "Microsoft.AspNetCore.DataProtection/3.1.0.0": {
        "compile": {
          "Microsoft.AspNetCore.DataProtection.dll": {}
        },
        "compileOnly": true
      },
      "Microsoft.AspNetCore.DataProtection.Extensions/3.1.0.0": {
        "compile": {
          "Microsoft.AspNetCore.DataProtection.Extensions.dll": {}
        },
        "compileOnly": true
      },
      "Microsoft.AspNetCore.Diagnostics.Abstractions/3.1.0.0": {
        "compile": {
          "Microsoft.AspNetCore.Diagnostics.Abstractions.dll": {}
        },
        "compileOnly": true
      },
      "Microsoft.AspNetCore.Diagnostics/3.1.0.0": {
        "compile": {
          "Microsoft.AspNetCore.Diagnostics.dll": {}
        },
        "compileOnly": true
      },
      "Microsoft.AspNetCore.Diagnostics.HealthChecks/3.1.0.0": {
        "compile": {
          "Microsoft.AspNetCore.Diagnostics.HealthChecks.dll": {}
        },
        "compileOnly": true
      },
      "Microsoft.AspNetCore/3.1.0.0": {
        "compile": {
          "Microsoft.AspNetCore.dll": {}
        },
        "compileOnly": true
      },
      "Microsoft.AspNetCore.HostFiltering/3.1.0.0": {
        "compile": {
          "Microsoft.AspNetCore.HostFiltering.dll": {}
        },
        "compileOnly": true
      },
      "Microsoft.AspNetCore.Hosting.Abstractions/3.1.0.0": {
        "compile": {
          "Microsoft.AspNetCore.Hosting.Abstractions.dll": {}
        },
        "compileOnly": true
      },
      "Microsoft.AspNetCore.Hosting/3.1.0.0": {
        "compile": {
          "Microsoft.AspNetCore.Hosting.dll": {}
        },
        "compileOnly": true
      },
      "Microsoft.AspNetCore.Hosting.Server.Abstractions/3.1.0.0": {
        "compile": {
          "Microsoft.AspNetCore.Hosting.Server.Abstractions.dll": {}
        },
        "compileOnly": true
      },
      "Microsoft.AspNetCore.Html.Abstractions/3.1.0.0": {
        "compile": {
          "Microsoft.AspNetCore.Html.Abstractions.dll": {}
        },
        "compileOnly": true
      },
      "Microsoft.AspNetCore.Http.Abstractions/3.1.0.0": {
        "compile": {
          "Microsoft.AspNetCore.Http.Abstractions.dll": {}
        },
        "compileOnly": true
      },
      "Microsoft.AspNetCore.Http.Connections.Common/3.1.0.0": {
        "compile": {
          "Microsoft.AspNetCore.Http.Connections.Common.dll": {}
        },
        "compileOnly": true
      },
      "Microsoft.AspNetCore.Http.Connections/3.1.0.0": {
        "compile": {
          "Microsoft.AspNetCore.Http.Connections.dll": {}
        },
        "compileOnly": true
      },
      "Microsoft.AspNetCore.Http/3.1.0.0": {
        "compile": {
          "Microsoft.AspNetCore.Http.dll": {}
        },
        "compileOnly": true
      },
      "Microsoft.AspNetCore.Http.Extensions/3.1.0.0": {
        "compile": {
          "Microsoft.AspNetCore.Http.Extensions.dll": {}
        },
        "compileOnly": true
      },
      "Microsoft.AspNetCore.Http.Features/3.1.0.0": {
        "compile": {
          "Microsoft.AspNetCore.Http.Features.dll": {}
        },
        "compileOnly": true
      },
      "Microsoft.AspNetCore.HttpOverrides/3.1.0.0": {
        "compile": {
          "Microsoft.AspNetCore.HttpOverrides.dll": {}
        },
        "compileOnly": true
      },
      "Microsoft.AspNetCore.HttpsPolicy/3.1.0.0": {
        "compile": {
          "Microsoft.AspNetCore.HttpsPolicy.dll": {}
        },
        "compileOnly": true
      },
      "Microsoft.AspNetCore.Identity/3.1.0.0": {
        "compile": {
          "Microsoft.AspNetCore.Identity.dll": {}
        },
        "compileOnly": true
      },
      "Microsoft.AspNetCore.Localization/3.1.0.0": {
        "compile": {
          "Microsoft.AspNetCore.Localization.dll": {}
        },
        "compileOnly": true
      },
      "Microsoft.AspNetCore.Localization.Routing/3.1.0.0": {
        "compile": {
          "Microsoft.AspNetCore.Localization.Routing.dll": {}
        },
        "compileOnly": true
      },
      "Microsoft.AspNetCore.Metadata/3.1.0.0": {
        "compile": {
          "Microsoft.AspNetCore.Metadata.dll": {}
        },
        "compileOnly": true
      },
      "Microsoft.AspNetCore.Mvc.Abstractions/3.1.0.0": {
        "compile": {
          "Microsoft.AspNetCore.Mvc.Abstractions.dll": {}
        },
        "compileOnly": true
      },
      "Microsoft.AspNetCore.Mvc.ApiExplorer/3.1.0.0": {
        "compile": {
          "Microsoft.AspNetCore.Mvc.ApiExplorer.dll": {}
        },
        "compileOnly": true
      },
      "Microsoft.AspNetCore.Mvc.Core/3.1.0.0": {
        "compile": {
          "Microsoft.AspNetCore.Mvc.Core.dll": {}
        },
        "compileOnly": true
      },
      "Microsoft.AspNetCore.Mvc.Cors/3.1.0.0": {
        "compile": {
          "Microsoft.AspNetCore.Mvc.Cors.dll": {}
        },
        "compileOnly": true
      },
      "Microsoft.AspNetCore.Mvc.DataAnnotations/3.1.0.0": {
        "compile": {
          "Microsoft.AspNetCore.Mvc.DataAnnotations.dll": {}
        },
        "compileOnly": true
      },
      "Microsoft.AspNetCore.Mvc/3.1.0.0": {
        "compile": {
          "Microsoft.AspNetCore.Mvc.dll": {}
        },
        "compileOnly": true
      },
      "Microsoft.AspNetCore.Mvc.Formatters.Json/3.1.0.0": {
        "compile": {
          "Microsoft.AspNetCore.Mvc.Formatters.Json.dll": {}
        },
        "compileOnly": true
      },
      "Microsoft.AspNetCore.Mvc.Formatters.Xml/3.1.0.0": {
        "compile": {
          "Microsoft.AspNetCore.Mvc.Formatters.Xml.dll": {}
        },
        "compileOnly": true
      },
      "Microsoft.AspNetCore.Mvc.Localization/3.1.0.0": {
        "compile": {
          "Microsoft.AspNetCore.Mvc.Localization.dll": {}
        },
        "compileOnly": true
      },
      "Microsoft.AspNetCore.Mvc.Razor/3.1.0.0": {
        "compile": {
          "Microsoft.AspNetCore.Mvc.Razor.dll": {}
        },
        "compileOnly": true
      },
      "Microsoft.AspNetCore.Mvc.RazorPages/3.1.0.0": {
        "compile": {
          "Microsoft.AspNetCore.Mvc.RazorPages.dll": {}
        },
        "compileOnly": true
      },
      "Microsoft.AspNetCore.Mvc.TagHelpers/3.1.0.0": {
        "compile": {
          "Microsoft.AspNetCore.Mvc.TagHelpers.dll": {}
        },
        "compileOnly": true
      },
      "Microsoft.AspNetCore.Mvc.ViewFeatures/3.1.0.0": {
        "compile": {
          "Microsoft.AspNetCore.Mvc.ViewFeatures.dll": {}
        },
        "compileOnly": true
      },
      "Microsoft.AspNetCore.Razor/3.1.0.0": {
        "compile": {
          "Microsoft.AspNetCore.Razor.dll": {}
        },
        "compileOnly": true
      },
      "Microsoft.AspNetCore.Razor.Runtime/3.1.0.0": {
        "compile": {
          "Microsoft.AspNetCore.Razor.Runtime.dll": {}
        },
        "compileOnly": true
      },
      "Microsoft.AspNetCore.ResponseCaching.Abstractions/3.1.0.0": {
        "compile": {
          "Microsoft.AspNetCore.ResponseCaching.Abstractions.dll": {}
        },
        "compileOnly": true
      },
      "Microsoft.AspNetCore.ResponseCaching/3.1.0.0": {
        "compile": {
          "Microsoft.AspNetCore.ResponseCaching.dll": {}
        },
        "compileOnly": true
      },
      "Microsoft.AspNetCore.ResponseCompression/3.1.0.0": {
        "compile": {
          "Microsoft.AspNetCore.ResponseCompression.dll": {}
        },
        "compileOnly": true
      },
      "Microsoft.AspNetCore.Rewrite/3.1.0.0": {
        "compile": {
          "Microsoft.AspNetCore.Rewrite.dll": {}
        },
        "compileOnly": true
      },
      "Microsoft.AspNetCore.Routing.Abstractions/3.1.0.0": {
        "compile": {
          "Microsoft.AspNetCore.Routing.Abstractions.dll": {}
        },
        "compileOnly": true
      },
      "Microsoft.AspNetCore.Routing/3.1.0.0": {
        "compile": {
          "Microsoft.AspNetCore.Routing.dll": {}
        },
        "compileOnly": true
      },
      "Microsoft.AspNetCore.Server.HttpSys/3.1.0.0": {
        "compile": {
          "Microsoft.AspNetCore.Server.HttpSys.dll": {}
        },
        "compileOnly": true
      },
      "Microsoft.AspNetCore.Server.IIS/3.1.0.0": {
        "compile": {
          "Microsoft.AspNetCore.Server.IIS.dll": {}
        },
        "compileOnly": true
      },
      "Microsoft.AspNetCore.Server.IISIntegration/3.1.0.0": {
        "compile": {
          "Microsoft.AspNetCore.Server.IISIntegration.dll": {}
        },
        "compileOnly": true
      },
      "Microsoft.AspNetCore.Server.Kestrel.Core/3.1.0.0": {
        "compile": {
          "Microsoft.AspNetCore.Server.Kestrel.Core.dll": {}
        },
        "compileOnly": true
      },
      "Microsoft.AspNetCore.Server.Kestrel/3.1.0.0": {
        "compile": {
          "Microsoft.AspNetCore.Server.Kestrel.dll": {}
        },
        "compileOnly": true
      },
      "Microsoft.AspNetCore.Server.Kestrel.Transport.Sockets/3.1.0.0": {
        "compile": {
          "Microsoft.AspNetCore.Server.Kestrel.Transport.Sockets.dll": {}
        },
        "compileOnly": true
      },
      "Microsoft.AspNetCore.Session/3.1.0.0": {
        "compile": {
          "Microsoft.AspNetCore.Session.dll": {}
        },
        "compileOnly": true
      },
      "Microsoft.AspNetCore.SignalR.Common/3.1.0.0": {
        "compile": {
          "Microsoft.AspNetCore.SignalR.Common.dll": {}
        },
        "compileOnly": true
      },
      "Microsoft.AspNetCore.SignalR.Core/3.1.0.0": {
        "compile": {
          "Microsoft.AspNetCore.SignalR.Core.dll": {}
        },
        "compileOnly": true
      },
      "Microsoft.AspNetCore.SignalR/3.1.0.0": {
        "compile": {
          "Microsoft.AspNetCore.SignalR.dll": {}
        },
        "compileOnly": true
      },
      "Microsoft.AspNetCore.SignalR.Protocols.Json/3.1.0.0": {
        "compile": {
          "Microsoft.AspNetCore.SignalR.Protocols.Json.dll": {}
        },
        "compileOnly": true
      },
      "Microsoft.AspNetCore.StaticFiles/3.1.0.0": {
        "compile": {
          "Microsoft.AspNetCore.StaticFiles.dll": {}
        },
        "compileOnly": true
      },
      "Microsoft.AspNetCore.WebSockets/3.1.0.0": {
        "compile": {
          "Microsoft.AspNetCore.WebSockets.dll": {}
        },
        "compileOnly": true
      },
      "Microsoft.AspNetCore.WebUtilities/3.1.0.0": {
        "compile": {
          "Microsoft.AspNetCore.WebUtilities.dll": {}
        },
        "compileOnly": true
      },
      "Microsoft.CSharp/4.0.0.0": {
        "compile": {
          "Microsoft.CSharp.dll": {}
        },
        "compileOnly": true
      },
      "Microsoft.Extensions.Caching.Abstractions/3.1.0.0": {
        "compile": {
          "Microsoft.Extensions.Caching.Abstractions.dll": {}
        },
        "compileOnly": true
      },
      "Microsoft.Extensions.Caching.Memory/3.1.0.0": {
        "compile": {
          "Microsoft.Extensions.Caching.Memory.dll": {}
        },
        "compileOnly": true
      },
      "Microsoft.Extensions.Configuration.Abstractions/3.1.0.0": {
        "compile": {
          "Microsoft.Extensions.Configuration.Abstractions.dll": {}
        },
        "compileOnly": true
      },
      "Microsoft.Extensions.Configuration.Binder/3.1.0.0": {
        "compile": {
          "Microsoft.Extensions.Configuration.Binder.dll": {}
        },
        "compileOnly": true
      },
      "Microsoft.Extensions.Configuration.CommandLine/3.1.0.0": {
        "compile": {
          "Microsoft.Extensions.Configuration.CommandLine.dll": {}
        },
        "compileOnly": true
      },
      "Microsoft.Extensions.Configuration/3.1.0.0": {
        "compile": {
          "Microsoft.Extensions.Configuration.dll": {}
        },
        "compileOnly": true
      },
      "Microsoft.Extensions.Configuration.EnvironmentVariables/3.1.0.0": {
        "compile": {
          "Microsoft.Extensions.Configuration.EnvironmentVariables.dll": {}
        },
        "compileOnly": true
      },
      "Microsoft.Extensions.Configuration.FileExtensions/3.1.0.0": {
        "compile": {
          "Microsoft.Extensions.Configuration.FileExtensions.dll": {}
        },
        "compileOnly": true
      },
      "Microsoft.Extensions.Configuration.Ini/3.1.0.0": {
        "compile": {
          "Microsoft.Extensions.Configuration.Ini.dll": {}
        },
        "compileOnly": true
      },
      "Microsoft.Extensions.Configuration.Json/3.1.0.0": {
        "compile": {
          "Microsoft.Extensions.Configuration.Json.dll": {}
        },
        "compileOnly": true
      },
      "Microsoft.Extensions.Configuration.KeyPerFile/3.1.0.0": {
        "compile": {
          "Microsoft.Extensions.Configuration.KeyPerFile.dll": {}
        },
        "compileOnly": true
      },
      "Microsoft.Extensions.Configuration.UserSecrets/3.1.0.0": {
        "compile": {
          "Microsoft.Extensions.Configuration.UserSecrets.dll": {}
        },
        "compileOnly": true
      },
      "Microsoft.Extensions.Configuration.Xml/3.1.0.0": {
        "compile": {
          "Microsoft.Extensions.Configuration.Xml.dll": {}
        },
        "compileOnly": true
      },
      "Microsoft.Extensions.DependencyInjection.Abstractions/3.1.0.0": {
        "compile": {
          "Microsoft.Extensions.DependencyInjection.Abstractions.dll": {}
        },
        "compileOnly": true
      },
      "Microsoft.Extensions.DependencyInjection/3.1.0.0": {
        "compile": {
          "Microsoft.Extensions.DependencyInjection.dll": {}
        },
        "compileOnly": true
      },
      "Microsoft.Extensions.Diagnostics.HealthChecks.Abstractions/3.1.0.0": {
        "compile": {
          "Microsoft.Extensions.Diagnostics.HealthChecks.Abstractions.dll": {}
        },
        "compileOnly": true
      },
      "Microsoft.Extensions.Diagnostics.HealthChecks/3.1.0.0": {
        "compile": {
          "Microsoft.Extensions.Diagnostics.HealthChecks.dll": {}
        },
        "compileOnly": true
      },
      "Microsoft.Extensions.FileProviders.Abstractions/3.1.0.0": {
        "compile": {
          "Microsoft.Extensions.FileProviders.Abstractions.dll": {}
        },
        "compileOnly": true
      },
      "Microsoft.Extensions.FileProviders.Composite/3.1.0.0": {
        "compile": {
          "Microsoft.Extensions.FileProviders.Composite.dll": {}
        },
        "compileOnly": true
      },
      "Microsoft.Extensions.FileProviders.Embedded/3.1.0.0": {
        "compile": {
          "Microsoft.Extensions.FileProviders.Embedded.dll": {}
        },
        "compileOnly": true
      },
      "Microsoft.Extensions.FileProviders.Physical/3.1.0.0": {
        "compile": {
          "Microsoft.Extensions.FileProviders.Physical.dll": {}
        },
        "compileOnly": true
      },
      "Microsoft.Extensions.FileSystemGlobbing/3.1.0.0": {
        "compile": {
          "Microsoft.Extensions.FileSystemGlobbing.dll": {}
        },
        "compileOnly": true
      },
      "Microsoft.Extensions.Hosting.Abstractions/3.1.0.0": {
        "compile": {
          "Microsoft.Extensions.Hosting.Abstractions.dll": {}
        },
        "compileOnly": true
      },
      "Microsoft.Extensions.Hosting/3.1.0.0": {
        "compile": {
          "Microsoft.Extensions.Hosting.dll": {}
        },
        "compileOnly": true
      },
      "Microsoft.Extensions.Http/3.1.0.0": {
        "compile": {
          "Microsoft.Extensions.Http.dll": {}
        },
        "compileOnly": true
      },
      "Microsoft.Extensions.Identity.Core/3.1.0.0": {
        "compile": {
          "Microsoft.Extensions.Identity.Core.dll": {}
        },
        "compileOnly": true
      },
      "Microsoft.Extensions.Identity.Stores/3.1.0.0": {
        "compile": {
          "Microsoft.Extensions.Identity.Stores.dll": {}
        },
        "compileOnly": true
      },
      "Microsoft.Extensions.Localization.Abstractions/3.1.0.0": {
        "compile": {
          "Microsoft.Extensions.Localization.Abstractions.dll": {}
        },
        "compileOnly": true
      },
      "Microsoft.Extensions.Localization/3.1.0.0": {
        "compile": {
          "Microsoft.Extensions.Localization.dll": {}
        },
        "compileOnly": true
      },
      "Microsoft.Extensions.Logging.Abstractions/3.1.0.0": {
        "compile": {
          "Microsoft.Extensions.Logging.Abstractions.dll": {}
        },
        "compileOnly": true
      },
      "Microsoft.Extensions.Logging.Configuration/3.1.0.0": {
        "compile": {
          "Microsoft.Extensions.Logging.Configuration.dll": {}
        },
        "compileOnly": true
      },
      "Microsoft.Extensions.Logging.Console/3.1.0.0": {
        "compile": {
          "Microsoft.Extensions.Logging.Console.dll": {}
        },
        "compileOnly": true
      },
      "Microsoft.Extensions.Logging.Debug/3.1.0.0": {
        "compile": {
          "Microsoft.Extensions.Logging.Debug.dll": {}
        },
        "compileOnly": true
      },
      "Microsoft.Extensions.Logging/3.1.0.0": {
        "compile": {
          "Microsoft.Extensions.Logging.dll": {}
        },
        "compileOnly": true
      },
      "Microsoft.Extensions.Logging.EventLog/3.1.0.0": {
        "compile": {
          "Microsoft.Extensions.Logging.EventLog.dll": {}
        },
        "compileOnly": true
      },
      "Microsoft.Extensions.Logging.EventSource/3.1.0.0": {
        "compile": {
          "Microsoft.Extensions.Logging.EventSource.dll": {}
        },
        "compileOnly": true
      },
      "Microsoft.Extensions.Logging.TraceSource/3.1.0.0": {
        "compile": {
          "Microsoft.Extensions.Logging.TraceSource.dll": {}
        },
        "compileOnly": true
      },
      "Microsoft.Extensions.ObjectPool/3.1.0.0": {
        "compile": {
          "Microsoft.Extensions.ObjectPool.dll": {}
        },
        "compileOnly": true
      },
      "Microsoft.Extensions.Options.ConfigurationExtensions/3.1.0.0": {
        "compile": {
          "Microsoft.Extensions.Options.ConfigurationExtensions.dll": {}
        },
        "compileOnly": true
      },
      "Microsoft.Extensions.Options.DataAnnotations/3.1.0.0": {
        "compile": {
          "Microsoft.Extensions.Options.DataAnnotations.dll": {}
        },
        "compileOnly": true
      },
      "Microsoft.Extensions.Options/3.1.0.0": {
        "compile": {
          "Microsoft.Extensions.Options.dll": {}
        },
        "compileOnly": true
      },
      "Microsoft.Extensions.Primitives/3.1.0.0": {
        "compile": {
          "Microsoft.Extensions.Primitives.dll": {}
        },
        "compileOnly": true
      },
      "Microsoft.Extensions.WebEncoders/3.1.0.0": {
        "compile": {
          "Microsoft.Extensions.WebEncoders.dll": {}
        },
        "compileOnly": true
      },
      "Microsoft.JSInterop/3.1.0.0": {
        "compile": {
          "Microsoft.JSInterop.dll": {}
        },
        "compileOnly": true
      },
      "Microsoft.Net.Http.Headers/3.1.0.0": {
        "compile": {
          "Microsoft.Net.Http.Headers.dll": {}
        },
        "compileOnly": true
      },
      "Microsoft.VisualBasic.Core/10.0.5.0": {
        "compile": {
          "Microsoft.VisualBasic.Core.dll": {}
        },
        "compileOnly": true
      },
      "Microsoft.VisualBasic/10.0.0.0": {
        "compile": {
          "Microsoft.VisualBasic.dll": {}
        },
        "compileOnly": true
      },
      "Microsoft.Win32.Primitives/4.1.2.0": {
        "compile": {
          "Microsoft.Win32.Primitives.dll": {}
        },
        "compileOnly": true
      },
      "mscorlib/4.0.0.0": {
        "compile": {
          "mscorlib.dll": {}
        },
        "compileOnly": true
      },
      "netstandard/2.1.0.0": {
        "compile": {
          "netstandard.dll": {}
        },
        "compileOnly": true
      },
      "System.AppContext/4.2.2.0": {
        "compile": {
          "System.AppContext.dll": {}
        },
        "compileOnly": true
      },
      "System.Buffers/4.0.2.0": {
        "compile": {
          "System.Buffers.dll": {}
        },
        "compileOnly": true
      },
      "System.Collections.Concurrent/4.0.15.0": {
        "compile": {
          "System.Collections.Concurrent.dll": {}
        },
        "compileOnly": true
      },
      "System.Collections/4.1.2.0": {
        "compile": {
          "System.Collections.dll": {}
        },
        "compileOnly": true
      },
      "System.Collections.Immutable/1.2.5.0": {
        "compile": {
          "System.Collections.Immutable.dll": {}
        },
        "compileOnly": true
      },
      "System.Collections.NonGeneric/4.1.2.0": {
        "compile": {
          "System.Collections.NonGeneric.dll": {}
        },
        "compileOnly": true
      },
      "System.Collections.Specialized/4.1.2.0": {
        "compile": {
          "System.Collections.Specialized.dll": {}
        },
        "compileOnly": true
      },
      "System.ComponentModel.Annotations/4.3.1.0": {
        "compile": {
          "System.ComponentModel.Annotations.dll": {}
        },
        "compileOnly": true
      },
      "System.ComponentModel.DataAnnotations/4.0.0.0": {
        "compile": {
          "System.ComponentModel.DataAnnotations.dll": {}
        },
        "compileOnly": true
      },
      "System.ComponentModel/4.0.4.0": {
        "compile": {
          "System.ComponentModel.dll": {}
        },
        "compileOnly": true
      },
      "System.ComponentModel.EventBasedAsync/4.1.2.0": {
        "compile": {
          "System.ComponentModel.EventBasedAsync.dll": {}
        },
        "compileOnly": true
      },
      "System.ComponentModel.Primitives/4.2.2.0": {
        "compile": {
          "System.ComponentModel.Primitives.dll": {}
        },
        "compileOnly": true
      },
      "System.ComponentModel.TypeConverter/4.2.2.0": {
        "compile": {
          "System.ComponentModel.TypeConverter.dll": {}
        },
        "compileOnly": true
      },
      "System.Configuration/4.0.0.0": {
        "compile": {
          "System.Configuration.dll": {}
        },
        "compileOnly": true
      },
      "System.Console/4.1.2.0": {
        "compile": {
          "System.Console.dll": {}
        },
        "compileOnly": true
      },
      "System.Core/4.0.0.0": {
        "compile": {
          "System.Core.dll": {}
        },
        "compileOnly": true
      },
      "System.Data.Common/4.2.2.0": {
        "compile": {
          "System.Data.Common.dll": {}
        },
        "compileOnly": true
      },
      "System.Data.DataSetExtensions/4.0.1.0": {
        "compile": {
          "System.Data.DataSetExtensions.dll": {}
        },
        "compileOnly": true
      },
      "System.Data/4.0.0.0": {
        "compile": {
          "System.Data.dll": {}
        },
        "compileOnly": true
      },
      "System.Diagnostics.Contracts/4.0.4.0": {
        "compile": {
          "System.Diagnostics.Contracts.dll": {}
        },
        "compileOnly": true
      },
      "System.Diagnostics.Debug/4.1.2.0": {
        "compile": {
          "System.Diagnostics.Debug.dll": {}
        },
        "compileOnly": true
      },
      "System.Diagnostics.DiagnosticSource/4.0.5.0": {
        "compile": {
          "System.Diagnostics.DiagnosticSource.dll": {}
        },
        "compileOnly": true
      },
      "System.Diagnostics.FileVersionInfo/4.0.4.0": {
        "compile": {
          "System.Diagnostics.FileVersionInfo.dll": {}
        },
        "compileOnly": true
      },
      "System.Diagnostics.Process/4.2.2.0": {
        "compile": {
          "System.Diagnostics.Process.dll": {}
        },
        "compileOnly": true
      },
      "System.Diagnostics.StackTrace/4.1.2.0": {
        "compile": {
          "System.Diagnostics.StackTrace.dll": {}
        },
        "compileOnly": true
      },
      "System.Diagnostics.TextWriterTraceListener/4.1.2.0": {
        "compile": {
          "System.Diagnostics.TextWriterTraceListener.dll": {}
        },
        "compileOnly": true
      },
      "System.Diagnostics.Tools/4.1.2.0": {
        "compile": {
          "System.Diagnostics.Tools.dll": {}
        },
        "compileOnly": true
      },
      "System.Diagnostics.TraceSource/4.1.2.0": {
        "compile": {
          "System.Diagnostics.TraceSource.dll": {}
        },
        "compileOnly": true
      },
      "System.Diagnostics.Tracing/4.2.2.0": {
        "compile": {
          "System.Diagnostics.Tracing.dll": {}
        },
        "compileOnly": true
      },
      "System/4.0.0.0": {
        "compile": {
          "System.dll": {}
        },
        "compileOnly": true
      },
      "System.Drawing/4.0.0.0": {
        "compile": {
          "System.Drawing.dll": {}
        },
        "compileOnly": true
      },
      "System.Drawing.Primitives/4.2.1.0": {
        "compile": {
          "System.Drawing.Primitives.dll": {}
        },
        "compileOnly": true
      },
      "System.Dynamic.Runtime/4.1.2.0": {
        "compile": {
          "System.Dynamic.Runtime.dll": {}
        },
        "compileOnly": true
      },
      "System.Globalization.Calendars/4.1.2.0": {
        "compile": {
          "System.Globalization.Calendars.dll": {}
        },
        "compileOnly": true
      },
      "System.Globalization/4.1.2.0": {
        "compile": {
          "System.Globalization.dll": {}
        },
        "compileOnly": true
      },
      "System.Globalization.Extensions/4.1.2.0": {
        "compile": {
          "System.Globalization.Extensions.dll": {}
        },
        "compileOnly": true
      },
      "System.IO.Compression.Brotli/4.2.2.0": {
        "compile": {
          "System.IO.Compression.Brotli.dll": {}
        },
        "compileOnly": true
      },
      "System.IO.Compression/4.2.2.0": {
        "compile": {
          "System.IO.Compression.dll": {}
        },
        "compileOnly": true
      },
      "System.IO.Compression.FileSystem/4.0.0.0": {
        "compile": {
          "System.IO.Compression.FileSystem.dll": {}
        },
        "compileOnly": true
      },
      "System.IO.Compression.ZipFile/4.0.5.0": {
        "compile": {
          "System.IO.Compression.ZipFile.dll": {}
        },
        "compileOnly": true
      },
      "System.IO/4.2.2.0": {
        "compile": {
          "System.IO.dll": {}
        },
        "compileOnly": true
      },
      "System.IO.FileSystem/4.1.2.0": {
        "compile": {
          "System.IO.FileSystem.dll": {}
        },
        "compileOnly": true
      },
      "System.IO.FileSystem.DriveInfo/4.1.2.0": {
        "compile": {
          "System.IO.FileSystem.DriveInfo.dll": {}
        },
        "compileOnly": true
      },
      "System.IO.FileSystem.Primitives/4.1.2.0": {
        "compile": {
          "System.IO.FileSystem.Primitives.dll": {}
        },
        "compileOnly": true
      },
      "System.IO.FileSystem.Watcher/4.1.2.0": {
        "compile": {
          "System.IO.FileSystem.Watcher.dll": {}
        },
        "compileOnly": true
      },
      "System.IO.IsolatedStorage/4.1.2.0": {
        "compile": {
          "System.IO.IsolatedStorage.dll": {}
        },
        "compileOnly": true
      },
      "System.IO.MemoryMappedFiles/4.1.2.0": {
        "compile": {
          "System.IO.MemoryMappedFiles.dll": {}
        },
        "compileOnly": true
      },
      "System.IO.Pipes/4.1.2.0": {
        "compile": {
          "System.IO.Pipes.dll": {}
        },
        "compileOnly": true
      },
      "System.IO.UnmanagedMemoryStream/4.1.2.0": {
        "compile": {
          "System.IO.UnmanagedMemoryStream.dll": {}
        },
        "compileOnly": true
      },
      "System.Linq/4.2.2.0": {
        "compile": {
          "System.Linq.dll": {}
        },
        "compileOnly": true
      },
      "System.Linq.Expressions/4.2.2.0": {
        "compile": {
          "System.Linq.Expressions.dll": {}
        },
        "compileOnly": true
      },
      "System.Linq.Parallel/4.0.4.0": {
        "compile": {
          "System.Linq.Parallel.dll": {}
        },
        "compileOnly": true
      },
      "System.Linq.Queryable/4.0.4.0": {
        "compile": {
          "System.Linq.Queryable.dll": {}
        },
        "compileOnly": true
      },
      "System.Memory/4.2.1.0": {
        "compile": {
          "System.Memory.dll": {}
        },
        "compileOnly": true
      },
      "System.Net/4.0.0.0": {
        "compile": {
          "System.Net.dll": {}
        },
        "compileOnly": true
      },
      "System.Net.Http/4.2.2.0": {
        "compile": {
          "System.Net.Http.dll": {}
        },
        "compileOnly": true
      },
      "System.Net.HttpListener/4.0.2.0": {
        "compile": {
          "System.Net.HttpListener.dll": {}
        },
        "compileOnly": true
      },
      "System.Net.Mail/4.0.2.0": {
        "compile": {
          "System.Net.Mail.dll": {}
        },
        "compileOnly": true
      },
      "System.Net.NameResolution/4.1.2.0": {
        "compile": {
          "System.Net.NameResolution.dll": {}
        },
        "compileOnly": true
      },
      "System.Net.NetworkInformation/4.2.2.0": {
        "compile": {
          "System.Net.NetworkInformation.dll": {}
        },
        "compileOnly": true
      },
      "System.Net.Ping/4.1.2.0": {
        "compile": {
          "System.Net.Ping.dll": {}
        },
        "compileOnly": true
      },
      "System.Net.Primitives/4.1.2.0": {
        "compile": {
          "System.Net.Primitives.dll": {}
        },
        "compileOnly": true
      },
      "System.Net.Requests/4.1.2.0": {
        "compile": {
          "System.Net.Requests.dll": {}
        },
        "compileOnly": true
      },
      "System.Net.Security/4.1.2.0": {
        "compile": {
          "System.Net.Security.dll": {}
        },
        "compileOnly": true
      },
      "System.Net.ServicePoint/4.0.2.0": {
        "compile": {
          "System.Net.ServicePoint.dll": {}
        },
        "compileOnly": true
      },
      "System.Net.Sockets/4.2.2.0": {
        "compile": {
          "System.Net.Sockets.dll": {}
        },
        "compileOnly": true
      },
      "System.Net.WebClient/4.0.2.0": {
        "compile": {
          "System.Net.WebClient.dll": {}
        },
        "compileOnly": true
      },
      "System.Net.WebHeaderCollection/4.1.2.0": {
        "compile": {
          "System.Net.WebHeaderCollection.dll": {}
        },
        "compileOnly": true
      },
      "System.Net.WebProxy/4.0.2.0": {
        "compile": {
          "System.Net.WebProxy.dll": {}
        },
        "compileOnly": true
      },
      "System.Net.WebSockets.Client/4.1.2.0": {
        "compile": {
          "System.Net.WebSockets.Client.dll": {}
        },
        "compileOnly": true
      },
      "System.Net.WebSockets/4.1.2.0": {
        "compile": {
          "System.Net.WebSockets.dll": {}
        },
        "compileOnly": true
      },
      "System.Numerics/4.0.0.0": {
        "compile": {
          "System.Numerics.dll": {}
        },
        "compileOnly": true
      },
      "System.Numerics.Vectors/4.1.6.0": {
        "compile": {
          "System.Numerics.Vectors.dll": {}
        },
        "compileOnly": true
      },
      "System.ObjectModel/4.1.2.0": {
        "compile": {
          "System.ObjectModel.dll": {}
        },
        "compileOnly": true
      },
      "System.Reflection.DispatchProxy/4.0.6.0": {
        "compile": {
          "System.Reflection.DispatchProxy.dll": {}
        },
        "compileOnly": true
      },
      "System.Reflection/4.2.2.0": {
        "compile": {
          "System.Reflection.dll": {}
        },
        "compileOnly": true
      },
      "System.Reflection.Emit/4.1.2.0": {
        "compile": {
          "System.Reflection.Emit.dll": {}
        },
        "compileOnly": true
      },
      "System.Reflection.Emit.ILGeneration/4.1.1.0": {
        "compile": {
          "System.Reflection.Emit.ILGeneration.dll": {}
        },
        "compileOnly": true
      },
      "System.Reflection.Emit.Lightweight/4.1.1.0": {
        "compile": {
          "System.Reflection.Emit.Lightweight.dll": {}
        },
        "compileOnly": true
      },
      "System.Reflection.Extensions/4.1.2.0": {
        "compile": {
          "System.Reflection.Extensions.dll": {}
        },
        "compileOnly": true
      },
      "System.Reflection.Metadata/1.4.5.0": {
        "compile": {
          "System.Reflection.Metadata.dll": {}
        },
        "compileOnly": true
      },
      "System.Reflection.Primitives/4.1.2.0": {
        "compile": {
          "System.Reflection.Primitives.dll": {}
        },
        "compileOnly": true
      },
      "System.Reflection.TypeExtensions/4.1.2.0": {
        "compile": {
          "System.Reflection.TypeExtensions.dll": {}
        },
        "compileOnly": true
      },
      "System.Resources.Reader/4.1.2.0": {
        "compile": {
          "System.Resources.Reader.dll": {}
        },
        "compileOnly": true
      },
      "System.Resources.ResourceManager/4.1.2.0": {
        "compile": {
          "System.Resources.ResourceManager.dll": {}
        },
        "compileOnly": true
      },
      "System.Resources.Writer/4.1.2.0": {
        "compile": {
          "System.Resources.Writer.dll": {}
        },
        "compileOnly": true
      },
      "System.Runtime.CompilerServices.Unsafe/4.0.6.0": {
        "compile": {
          "System.Runtime.CompilerServices.Unsafe.dll": {}
        },
        "compileOnly": true
      },
      "System.Runtime.CompilerServices.VisualC/4.1.2.0": {
        "compile": {
          "System.Runtime.CompilerServices.VisualC.dll": {}
        },
        "compileOnly": true
      },
      "System.Runtime/4.2.2.0": {
        "compile": {
          "System.Runtime.dll": {}
        },
        "compileOnly": true
      },
      "System.Runtime.Extensions/4.2.2.0": {
        "compile": {
          "System.Runtime.Extensions.dll": {}
        },
        "compileOnly": true
      },
      "System.Runtime.Handles/4.1.2.0": {
        "compile": {
          "System.Runtime.Handles.dll": {}
        },
        "compileOnly": true
      },
      "System.Runtime.InteropServices/4.2.2.0": {
        "compile": {
          "System.Runtime.InteropServices.dll": {}
        },
        "compileOnly": true
      },
      "System.Runtime.InteropServices.RuntimeInformation/4.0.4.0": {
        "compile": {
          "System.Runtime.InteropServices.RuntimeInformation.dll": {}
        },
        "compileOnly": true
      },
      "System.Runtime.InteropServices.WindowsRuntime/4.0.4.0": {
        "compile": {
          "System.Runtime.InteropServices.WindowsRuntime.dll": {}
        },
        "compileOnly": true
      },
      "System.Runtime.Intrinsics/4.0.1.0": {
        "compile": {
          "System.Runtime.Intrinsics.dll": {}
        },
        "compileOnly": true
      },
      "System.Runtime.Loader/4.1.1.0": {
        "compile": {
          "System.Runtime.Loader.dll": {}
        },
        "compileOnly": true
      },
      "System.Runtime.Numerics/4.1.2.0": {
        "compile": {
          "System.Runtime.Numerics.dll": {}
        },
        "compileOnly": true
      },
      "System.Runtime.Serialization/4.0.0.0": {
        "compile": {
          "System.Runtime.Serialization.dll": {}
        },
        "compileOnly": true
      },
      "System.Runtime.Serialization.Formatters/4.0.4.0": {
        "compile": {
          "System.Runtime.Serialization.Formatters.dll": {}
        },
        "compileOnly": true
      },
      "System.Runtime.Serialization.Json/4.0.5.0": {
        "compile": {
          "System.Runtime.Serialization.Json.dll": {}
        },
        "compileOnly": true
      },
      "System.Runtime.Serialization.Primitives/4.2.2.0": {
        "compile": {
          "System.Runtime.Serialization.Primitives.dll": {}
        },
        "compileOnly": true
      },
      "System.Runtime.Serialization.Xml/4.1.5.0": {
        "compile": {
          "System.Runtime.Serialization.Xml.dll": {}
        },
        "compileOnly": true
      },
      "System.Security.Claims/4.1.2.0": {
        "compile": {
          "System.Security.Claims.dll": {}
        },
        "compileOnly": true
      },
      "System.Security.Cryptography.Algorithms/4.3.2.0": {
        "compile": {
          "System.Security.Cryptography.Algorithms.dll": {}
        },
        "compileOnly": true
      },
      "System.Security.Cryptography.Csp/4.1.2.0": {
        "compile": {
          "System.Security.Cryptography.Csp.dll": {}
        },
        "compileOnly": true
      },
      "System.Security.Cryptography.Encoding/4.1.2.0": {
        "compile": {
          "System.Security.Cryptography.Encoding.dll": {}
        },
        "compileOnly": true
      },
      "System.Security.Cryptography.Primitives/4.1.2.0": {
        "compile": {
          "System.Security.Cryptography.Primitives.dll": {}
        },
        "compileOnly": true
      },
      "System.Security.Cryptography.X509Certificates/4.2.2.0": {
        "compile": {
          "System.Security.Cryptography.X509Certificates.dll": {}
        },
        "compileOnly": true
      },
      "System.Security/4.0.0.0": {
        "compile": {
          "System.Security.dll": {}
        },
        "compileOnly": true
      },
      "System.Security.Principal/4.1.2.0": {
        "compile": {
          "System.Security.Principal.dll": {}
        },
        "compileOnly": true
      },
      "System.Security.SecureString/4.1.2.0": {
        "compile": {
          "System.Security.SecureString.dll": {}
        },
        "compileOnly": true
      },
      "System.ServiceModel.Web/4.0.0.0": {
        "compile": {
          "System.ServiceModel.Web.dll": {}
        },
        "compileOnly": true
      },
      "System.ServiceProcess/4.0.0.0": {
        "compile": {
          "System.ServiceProcess.dll": {}
        },
        "compileOnly": true
      },
      "System.Text.Encoding.CodePages/4.1.3.0": {
        "compile": {
          "System.Text.Encoding.CodePages.dll": {}
        },
        "compileOnly": true
      },
      "System.Text.Encoding/4.1.2.0": {
        "compile": {
          "System.Text.Encoding.dll": {}
        },
        "compileOnly": true
      },
      "System.Text.Encoding.Extensions/4.1.2.0": {
        "compile": {
          "System.Text.Encoding.Extensions.dll": {}
        },
        "compileOnly": true
      },
      "System.Text.Encodings.Web/4.0.5.0": {
        "compile": {
          "System.Text.Encodings.Web.dll": {}
        },
        "compileOnly": true
      },
      "System.Text.Json/4.0.1.0": {
        "compile": {
          "System.Text.Json.dll": {}
        },
        "compileOnly": true
      },
      "System.Text.RegularExpressions/4.2.2.0": {
        "compile": {
          "System.Text.RegularExpressions.dll": {}
        },
        "compileOnly": true
      },
      "System.Threading.Channels/4.0.2.0": {
        "compile": {
          "System.Threading.Channels.dll": {}
        },
        "compileOnly": true
      },
      "System.Threading/4.1.2.0": {
        "compile": {
          "System.Threading.dll": {}
        },
        "compileOnly": true
      },
      "System.Threading.Overlapped/4.1.2.0": {
        "compile": {
          "System.Threading.Overlapped.dll": {}
        },
        "compileOnly": true
      },
      "System.Threading.Tasks.Dataflow/4.6.5.0": {
        "compile": {
          "System.Threading.Tasks.Dataflow.dll": {}
        },
        "compileOnly": true
      },
      "System.Threading.Tasks/4.1.2.0": {
        "compile": {
          "System.Threading.Tasks.dll": {}
        },
        "compileOnly": true
      },
      "System.Threading.Tasks.Extensions/4.3.1.0": {
        "compile": {
          "System.Threading.Tasks.Extensions.dll": {}
        },
        "compileOnly": true
      },
      "System.Threading.Tasks.Parallel/4.0.4.0": {
        "compile": {
          "System.Threading.Tasks.Parallel.dll": {}
        },
        "compileOnly": true
      },
      "System.Threading.Thread/4.1.2.0": {
        "compile": {
          "System.Threading.Thread.dll": {}
        },
        "compileOnly": true
      },
      "System.Threading.ThreadPool/4.1.2.0": {
        "compile": {
          "System.Threading.ThreadPool.dll": {}
        },
        "compileOnly": true
      },
      "System.Threading.Timer/4.1.2.0": {
        "compile": {
          "System.Threading.Timer.dll": {}
        },
        "compileOnly": true
      },
      "System.Transactions/4.0.0.0": {
        "compile": {
          "System.Transactions.dll": {}
        },
        "compileOnly": true
      },
      "System.Transactions.Local/4.0.2.0": {
        "compile": {
          "System.Transactions.Local.dll": {}
        },
        "compileOnly": true
      },
      "System.ValueTuple/4.0.3.0": {
        "compile": {
          "System.ValueTuple.dll": {}
        },
        "compileOnly": true
      },
      "System.Web/4.0.0.0": {
        "compile": {
          "System.Web.dll": {}
        },
        "compileOnly": true
      },
      "System.Web.HttpUtility/4.0.2.0": {
        "compile": {
          "System.Web.HttpUtility.dll": {}
        },
        "compileOnly": true
      },
      "System.Windows/4.0.0.0": {
        "compile": {
          "System.Windows.dll": {}
        },
        "compileOnly": true
      },
      "System.Xml/4.0.0.0": {
        "compile": {
          "System.Xml.dll": {}
        },
        "compileOnly": true
      },
      "System.Xml.Linq/4.0.0.0": {
        "compile": {
          "System.Xml.Linq.dll": {}
        },
        "compileOnly": true
      },
      "System.Xml.ReaderWriter/4.2.2.0": {
        "compile": {
          "System.Xml.ReaderWriter.dll": {}
        },
        "compileOnly": true
      },
      "System.Xml.Serialization/4.0.0.0": {
        "compile": {
          "System.Xml.Serialization.dll": {}
        },
        "compileOnly": true
      },
      "System.Xml.XDocument/4.1.2.0": {
        "compile": {
          "System.Xml.XDocument.dll": {}
        },
        "compileOnly": true
      },
      "System.Xml.XmlDocument/4.1.2.0": {
        "compile": {
          "System.Xml.XmlDocument.dll": {}
        },
        "compileOnly": true
      },
      "System.Xml.XmlSerializer/4.1.2.0": {
        "compile": {
          "System.Xml.XmlSerializer.dll": {}
        },
        "compileOnly": true
      },
      "System.Xml.XPath/4.1.2.0": {
        "compile": {
          "System.Xml.XPath.dll": {}
        },
        "compileOnly": true
      },
      "System.Xml.XPath.XDocument/4.1.2.0": {
        "compile": {
          "System.Xml.XPath.XDocument.dll": {}
        },
        "compileOnly": true
      },
      "WindowsBase/4.0.0.0": {
        "compile": {
          "WindowsBase.dll": {}
        },
        "compileOnly": true
      }
    }
  },
  "libraries": {
    "HelloMvc/1.0.0": {
      "type": "project",
      "serviceable": false,
      "sha512": ""
    },
    "Microsoft.AspNetCore.Antiforgery/3.1.0.0": {
      "type": "referenceassembly",
      "serviceable": false,
      "sha512": ""
    },
    "Microsoft.AspNetCore.Authentication.Abstractions/3.1.0.0": {
      "type": "referenceassembly",
      "serviceable": false,
      "sha512": ""
    },
    "Microsoft.AspNetCore.Authentication.Cookies/3.1.0.0": {
      "type": "referenceassembly",
      "serviceable": false,
      "sha512": ""
    },
    "Microsoft.AspNetCore.Authentication.Core/3.1.0.0": {
      "type": "referenceassembly",
      "serviceable": false,
      "sha512": ""
    },
    "Microsoft.AspNetCore.Authentication/3.1.0.0": {
      "type": "referenceassembly",
      "serviceable": false,
      "sha512": ""
    },
    "Microsoft.AspNetCore.Authentication.OAuth/3.1.0.0": {
      "type": "referenceassembly",
      "serviceable": false,
      "sha512": ""
    },
    "Microsoft.AspNetCore.Authorization/3.1.0.0": {
      "type": "referenceassembly",
      "serviceable": false,
      "sha512": ""
    },
    "Microsoft.AspNetCore.Authorization.Policy/3.1.0.0": {
      "type": "referenceassembly",
      "serviceable": false,
      "sha512": ""
    },
    "Microsoft.AspNetCore.Components.Authorization/3.1.0.0": {
      "type": "referenceassembly",
      "serviceable": false,
      "sha512": ""
    },
    "Microsoft.AspNetCore.Components/3.1.0.0": {
      "type": "referenceassembly",
      "serviceable": false,
      "sha512": ""
    },
    "Microsoft.AspNetCore.Components.Forms/3.1.0.0": {
      "type": "referenceassembly",
      "serviceable": false,
      "sha512": ""
    },
    "Microsoft.AspNetCore.Components.Server/3.1.0.0": {
      "type": "referenceassembly",
      "serviceable": false,
      "sha512": ""
    },
    "Microsoft.AspNetCore.Components.Web/3.1.0.0": {
      "type": "referenceassembly",
      "serviceable": false,
      "sha512": ""
    },
    "Microsoft.AspNetCore.Connections.Abstractions/3.1.0.0": {
      "type": "referenceassembly",
      "serviceable": false,
      "sha512": ""
    },
    "Microsoft.AspNetCore.CookiePolicy/3.1.0.0": {
      "type": "referenceassembly",
      "serviceable": false,
      "sha512": ""
    },
    "Microsoft.AspNetCore.Cors/3.1.0.0": {
      "type": "referenceassembly",
      "serviceable": false,
      "sha512": ""
    },
    "Microsoft.AspNetCore.Cryptography.Internal/3.1.0.0": {
      "type": "referenceassembly",
      "serviceable": false,
      "sha512": ""
    },
    "Microsoft.AspNetCore.Cryptography.KeyDerivation/3.1.0.0": {
      "type": "referenceassembly",
      "serviceable": false,
      "sha512": ""
    },
    "Microsoft.AspNetCore.DataProtection.Abstractions/3.1.0.0": {
      "type": "referenceassembly",
      "serviceable": false,
      "sha512": ""
    },
    "Microsoft.AspNetCore.DataProtection/3.1.0.0": {
      "type": "referenceassembly",
      "serviceable": false,
      "sha512": ""
    },
    "Microsoft.AspNetCore.DataProtection.Extensions/3.1.0.0": {
      "type": "referenceassembly",
      "serviceable": false,
      "sha512": ""
    },
    "Microsoft.AspNetCore.Diagnostics.Abstractions/3.1.0.0": {
      "type": "referenceassembly",
      "serviceable": false,
      "sha512": ""
    },
    "Microsoft.AspNetCore.Diagnostics/3.1.0.0": {
      "type": "referenceassembly",
      "serviceable": false,
      "sha512": ""
    },
    "Microsoft.AspNetCore.Diagnostics.HealthChecks/3.1.0.0": {
      "type": "referenceassembly",
      "serviceable": false,
      "sha512": ""
    },
    "Microsoft.AspNetCore/3.1.0.0": {
      "type": "referenceassembly",
      "serviceable": false,
      "sha512": ""
    },
    "Microsoft.AspNetCore.HostFiltering/3.1.0.0": {
      "type": "referenceassembly",
      "serviceable": false,
      "sha512": ""
    },
    "Microsoft.AspNetCore.Hosting.Abstractions/3.1.0.0": {
      "type": "referenceassembly",
      "serviceable": false,
      "sha512": ""
    },
    "Microsoft.AspNetCore.Hosting/3.1.0.0": {
      "type": "referenceassembly",
      "serviceable": false,
      "sha512": ""
    },
    "Microsoft.AspNetCore.Hosting.Server.Abstractions/3.1.0.0": {
      "type": "referenceassembly",
      "serviceable": false,
      "sha512": ""
    },
    "Microsoft.AspNetCore.Html.Abstractions/3.1.0.0": {
      "type": "referenceassembly",
      "serviceable": false,
      "sha512": ""
    },
    "Microsoft.AspNetCore.Http.Abstractions/3.1.0.0": {
      "type": "referenceassembly",
      "serviceable": false,
      "sha512": ""
    },
    "Microsoft.AspNetCore.Http.Connections.Common/3.1.0.0": {
      "type": "referenceassembly",
      "serviceable": false,
      "sha512": ""
    },
    "Microsoft.AspNetCore.Http.Connections/3.1.0.0": {
      "type": "referenceassembly",
      "serviceable": false,
      "sha512": ""
    },
    "Microsoft.AspNetCore.Http/3.1.0.0": {
      "type": "referenceassembly",
      "serviceable": false,
      "sha512": ""
    },
    "Microsoft.AspNetCore.Http.Extensions/3.1.0.0": {
      "type": "referenceassembly",
      "serviceable": false,
      "sha512": ""
    },
    "Microsoft.AspNetCore.Http.Features/3.1.0.0": {
      "type": "referenceassembly",
      "serviceable": false,
      "sha512": ""
    },
    "Microsoft.AspNetCore.HttpOverrides/3.1.0.0": {
      "type": "referenceassembly",
      "serviceable": false,
      "sha512": ""
    },
    "Microsoft.AspNetCore.HttpsPolicy/3.1.0.0": {
      "type": "referenceassembly",
      "serviceable": false,
      "sha512": ""
    },
    "Microsoft.AspNetCore.Identity/3.1.0.0": {
      "type": "referenceassembly",
      "serviceable": false,
      "sha512": ""
    },
    "Microsoft.AspNetCore.Localization/3.1.0.0": {
      "type": "referenceassembly",
      "serviceable": false,
      "sha512": ""
    },
    "Microsoft.AspNetCore.Localization.Routing/3.1.0.0": {
      "type": "referenceassembly",
      "serviceable": false,
      "sha512": ""
    },
    "Microsoft.AspNetCore.Metadata/3.1.0.0": {
      "type": "referenceassembly",
      "serviceable": false,
      "sha512": ""
    },
    "Microsoft.AspNetCore.Mvc.Abstractions/3.1.0.0": {
      "type": "referenceassembly",
      "serviceable": false,
      "sha512": ""
    },
    "Microsoft.AspNetCore.Mvc.ApiExplorer/3.1.0.0": {
      "type": "referenceassembly",
      "serviceable": false,
      "sha512": ""
    },
    "Microsoft.AspNetCore.Mvc.Core/3.1.0.0": {
      "type": "referenceassembly",
      "serviceable": false,
      "sha512": ""
    },
    "Microsoft.AspNetCore.Mvc.Cors/3.1.0.0": {
      "type": "referenceassembly",
      "serviceable": false,
      "sha512": ""
    },
    "Microsoft.AspNetCore.Mvc.DataAnnotations/3.1.0.0": {
      "type": "referenceassembly",
      "serviceable": false,
      "sha512": ""
    },
    "Microsoft.AspNetCore.Mvc/3.1.0.0": {
      "type": "referenceassembly",
      "serviceable": false,
      "sha512": ""
    },
    "Microsoft.AspNetCore.Mvc.Formatters.Json/3.1.0.0": {
      "type": "referenceassembly",
      "serviceable": false,
      "sha512": ""
    },
    "Microsoft.AspNetCore.Mvc.Formatters.Xml/3.1.0.0": {
      "type": "referenceassembly",
      "serviceable": false,
      "sha512": ""
    },
    "Microsoft.AspNetCore.Mvc.Localization/3.1.0.0": {
      "type": "referenceassembly",
      "serviceable": false,
      "sha512": ""
    },
    "Microsoft.AspNetCore.Mvc.Razor/3.1.0.0": {
      "type": "referenceassembly",
      "serviceable": false,
      "sha512": ""
    },
    "Microsoft.AspNetCore.Mvc.RazorPages/3.1.0.0": {
      "type": "referenceassembly",
      "serviceable": false,
      "sha512": ""
    },
    "Microsoft.AspNetCore.Mvc.TagHelpers/3.1.0.0": {
      "type": "referenceassembly",
      "serviceable": false,
      "sha512": ""
    },
    "Microsoft.AspNetCore.Mvc.ViewFeatures/3.1.0.0": {
      "type": "referenceassembly",
      "serviceable": false,
      "sha512": ""
    },
    "Microsoft.AspNetCore.Razor/3.1.0.0": {
      "type": "referenceassembly",
      "serviceable": false,
      "sha512": ""
    },
    "Microsoft.AspNetCore.Razor.Runtime/3.1.0.0": {
      "type": "referenceassembly",
      "serviceable": false,
      "sha512": ""
    },
    "Microsoft.AspNetCore.ResponseCaching.Abstractions/3.1.0.0": {
      "type": "referenceassembly",
      "serviceable": false,
      "sha512": ""
    },
    "Microsoft.AspNetCore.ResponseCaching/3.1.0.0": {
      "type": "referenceassembly",
      "serviceable": false,
      "sha512": ""
    },
    "Microsoft.AspNetCore.ResponseCompression/3.1.0.0": {
      "type": "referenceassembly",
      "serviceable": false,
      "sha512": ""
    },
    "Microsoft.AspNetCore.Rewrite/3.1.0.0": {
      "type": "referenceassembly",
      "serviceable": false,
      "sha512": ""
    },
    "Microsoft.AspNetCore.Routing.Abstractions/3.1.0.0": {
      "type": "referenceassembly",
      "serviceable": false,
      "sha512": ""
    },
    "Microsoft.AspNetCore.Routing/3.1.0.0": {
      "type": "referenceassembly",
      "serviceable": false,
      "sha512": ""
    },
    "Microsoft.AspNetCore.Server.HttpSys/3.1.0.0": {
      "type": "referenceassembly",
      "serviceable": false,
      "sha512": ""
    },
    "Microsoft.AspNetCore.Server.IIS/3.1.0.0": {
      "type": "referenceassembly",
      "serviceable": false,
      "sha512": ""
    },
    "Microsoft.AspNetCore.Server.IISIntegration/3.1.0.0": {
      "type": "referenceassembly",
      "serviceable": false,
      "sha512": ""
    },
    "Microsoft.AspNetCore.Server.Kestrel.Core/3.1.0.0": {
      "type": "referenceassembly",
      "serviceable": false,
      "sha512": ""
    },
    "Microsoft.AspNetCore.Server.Kestrel/3.1.0.0": {
      "type": "referenceassembly",
      "serviceable": false,
      "sha512": ""
    },
    "Microsoft.AspNetCore.Server.Kestrel.Transport.Sockets/3.1.0.0": {
      "type": "referenceassembly",
      "serviceable": false,
      "sha512": ""
    },
    "Microsoft.AspNetCore.Session/3.1.0.0": {
      "type": "referenceassembly",
      "serviceable": false,
      "sha512": ""
    },
    "Microsoft.AspNetCore.SignalR.Common/3.1.0.0": {
      "type": "referenceassembly",
      "serviceable": false,
      "sha512": ""
    },
    "Microsoft.AspNetCore.SignalR.Core/3.1.0.0": {
      "type": "referenceassembly",
      "serviceable": false,
      "sha512": ""
    },
    "Microsoft.AspNetCore.SignalR/3.1.0.0": {
      "type": "referenceassembly",
      "serviceable": false,
      "sha512": ""
    },
    "Microsoft.AspNetCore.SignalR.Protocols.Json/3.1.0.0": {
      "type": "referenceassembly",
      "serviceable": false,
      "sha512": ""
    },
    "Microsoft.AspNetCore.StaticFiles/3.1.0.0": {
      "type": "referenceassembly",
      "serviceable": false,
      "sha512": ""
    },
    "Microsoft.AspNetCore.WebSockets/3.1.0.0": {
      "type": "referenceassembly",
      "serviceable": false,
      "sha512": ""
    },
    "Microsoft.AspNetCore.WebUtilities/3.1.0.0": {
      "type": "referenceassembly",
      "serviceable": false,
      "sha512": ""
    },
    "Microsoft.CSharp/4.0.0.0": {
      "type": "referenceassembly",
      "serviceable": false,
      "sha512": ""
    },
    "Microsoft.Extensions.Caching.Abstractions/3.1.0.0": {
      "type": "referenceassembly",
      "serviceable": false,
      "sha512": ""
    },
    "Microsoft.Extensions.Caching.Memory/3.1.0.0": {
      "type": "referenceassembly",
      "serviceable": false,
      "sha512": ""
    },
    "Microsoft.Extensions.Configuration.Abstractions/3.1.0.0": {
      "type": "referenceassembly",
      "serviceable": false,
      "sha512": ""
    },
    "Microsoft.Extensions.Configuration.Binder/3.1.0.0": {
      "type": "referenceassembly",
      "serviceable": false,
      "sha512": ""
    },
    "Microsoft.Extensions.Configuration.CommandLine/3.1.0.0": {
      "type": "referenceassembly",
      "serviceable": false,
      "sha512": ""
    },
    "Microsoft.Extensions.Configuration/3.1.0.0": {
      "type": "referenceassembly",
      "serviceable": false,
      "sha512": ""
    },
    "Microsoft.Extensions.Configuration.EnvironmentVariables/3.1.0.0": {
      "type": "referenceassembly",
      "serviceable": false,
      "sha512": ""
    },
    "Microsoft.Extensions.Configuration.FileExtensions/3.1.0.0": {
      "type": "referenceassembly",
      "serviceable": false,
      "sha512": ""
    },
    "Microsoft.Extensions.Configuration.Ini/3.1.0.0": {
      "type": "referenceassembly",
      "serviceable": false,
      "sha512": ""
    },
    "Microsoft.Extensions.Configuration.Json/3.1.0.0": {
      "type": "referenceassembly",
      "serviceable": false,
      "sha512": ""
    },
    "Microsoft.Extensions.Configuration.KeyPerFile/3.1.0.0": {
      "type": "referenceassembly",
      "serviceable": false,
      "sha512": ""
    },
    "Microsoft.Extensions.Configuration.UserSecrets/3.1.0.0": {
      "type": "referenceassembly",
      "serviceable": false,
      "sha512": ""
    },
    "Microsoft.Extensions.Configuration.Xml/3.1.0.0": {
      "type": "referenceassembly",
      "serviceable": false,
      "sha512": ""
    },
    "Microsoft.Extensions.DependencyInjection.Abstractions/3.1.0.0": {
      "type": "referenceassembly",
      "serviceable": false,
      "sha512": ""
    },
    "Microsoft.Extensions.DependencyInjection/3.1.0.0": {
      "type": "referenceassembly",
      "serviceable": false,
      "sha512": ""
    },
    "Microsoft.Extensions.Diagnostics.HealthChecks.Abstractions/3.1.0.0": {
      "type": "referenceassembly",
      "serviceable": false,
      "sha512": ""
    },
    "Microsoft.Extensions.Diagnostics.HealthChecks/3.1.0.0": {
      "type": "referenceassembly",
      "serviceable": false,
      "sha512": ""
    },
    "Microsoft.Extensions.FileProviders.Abstractions/3.1.0.0": {
      "type": "referenceassembly",
      "serviceable": false,
      "sha512": ""
    },
    "Microsoft.Extensions.FileProviders.Composite/3.1.0.0": {
      "type": "referenceassembly",
      "serviceable": false,
      "sha512": ""
    },
    "Microsoft.Extensions.FileProviders.Embedded/3.1.0.0": {
      "type": "referenceassembly",
      "serviceable": false,
      "sha512": ""
    },
    "Microsoft.Extensions.FileProviders.Physical/3.1.0.0": {
      "type": "referenceassembly",
      "serviceable": false,
      "sha512": ""
    },
    "Microsoft.Extensions.FileSystemGlobbing/3.1.0.0": {
      "type": "referenceassembly",
      "serviceable": false,
      "sha512": ""
    },
    "Microsoft.Extensions.Hosting.Abstractions/3.1.0.0": {
      "type": "referenceassembly",
      "serviceable": false,
      "sha512": ""
    },
    "Microsoft.Extensions.Hosting/3.1.0.0": {
      "type": "referenceassembly",
      "serviceable": false,
      "sha512": ""
    },
    "Microsoft.Extensions.Http/3.1.0.0": {
      "type": "referenceassembly",
      "serviceable": false,
      "sha512": ""
    },
    "Microsoft.Extensions.Identity.Core/3.1.0.0": {
      "type": "referenceassembly",
      "serviceable": false,
      "sha512": ""
    },
    "Microsoft.Extensions.Identity.Stores/3.1.0.0": {
      "type": "referenceassembly",
      "serviceable": false,
      "sha512": ""
    },
    "Microsoft.Extensions.Localization.Abstractions/3.1.0.0": {
      "type": "referenceassembly",
      "serviceable": false,
      "sha512": ""
    },
    "Microsoft.Extensions.Localization/3.1.0.0": {
      "type": "referenceassembly",
      "serviceable": false,
      "sha512": ""
    },
    "Microsoft.Extensions.Logging.Abstractions/3.1.0.0": {
      "type": "referenceassembly",
      "serviceable": false,
      "sha512": ""
    },
    "Microsoft.Extensions.Logging.Configuration/3.1.0.0": {
      "type": "referenceassembly",
      "serviceable": false,
      "sha512": ""
    },
    "Microsoft.Extensions.Logging.Console/3.1.0.0": {
      "type": "referenceassembly",
      "serviceable": false,
      "sha512": ""
    },
    "Microsoft.Extensions.Logging.Debug/3.1.0.0": {
      "type": "referenceassembly",
      "serviceable": false,
      "sha512": ""
    },
    "Microsoft.Extensions.Logging/3.1.0.0": {
      "type": "referenceassembly",
      "serviceable": false,
      "sha512": ""
    },
    "Microsoft.Extensions.Logging.EventLog/3.1.0.0": {
      "type": "referenceassembly",
      "serviceable": false,
      "sha512": ""
    },
    "Microsoft.Extensions.Logging.EventSource/3.1.0.0": {
      "type": "referenceassembly",
      "serviceable": false,
      "sha512": ""
    },
    "Microsoft.Extensions.Logging.TraceSource/3.1.0.0": {
      "type": "referenceassembly",
      "serviceable": false,
      "sha512": ""
    },
    "Microsoft.Extensions.ObjectPool/3.1.0.0": {
      "type": "referenceassembly",
      "serviceable": false,
      "sha512": ""
    },
    "Microsoft.Extensions.Options.ConfigurationExtensions/3.1.0.0": {
      "type": "referenceassembly",
      "serviceable": false,
      "sha512": ""
    },
    "Microsoft.Extensions.Options.DataAnnotations/3.1.0.0": {
      "type": "referenceassembly",
      "serviceable": false,
      "sha512": ""
    },
    "Microsoft.Extensions.Options/3.1.0.0": {
      "type": "referenceassembly",
      "serviceable": false,
      "sha512": ""
    },
    "Microsoft.Extensions.Primitives/3.1.0.0": {
      "type": "referenceassembly",
      "serviceable": false,
      "sha512": ""
    },
    "Microsoft.Extensions.WebEncoders/3.1.0.0": {
      "type": "referenceassembly",
      "serviceable": false,
      "sha512": ""
    },
    "Microsoft.JSInterop/3.1.0.0": {
      "type": "referenceassembly",
      "serviceable": false,
      "sha512": ""
    },
    "Microsoft.Net.Http.Headers/3.1.0.0": {
      "type": "referenceassembly",
      "serviceable": false,
      "sha512": ""
    },
    "Microsoft.VisualBasic.Core/10.0.5.0": {
      "type": "referenceassembly",
      "serviceable": false,
      "sha512": ""
    },
    "Microsoft.VisualBasic/10.0.0.0": {
      "type": "referenceassembly",
      "serviceable": false,
      "sha512": ""
    },
    "Microsoft.Win32.Primitives/4.1.2.0": {
      "type": "referenceassembly",
      "serviceable": false,
      "sha512": ""
    },
    "mscorlib/4.0.0.0": {
      "type": "referenceassembly",
      "serviceable": false,
      "sha512": ""
    },
    "netstandard/2.1.0.0": {
      "type": "referenceassembly",
      "serviceable": false,
      "sha512": ""
    },
    "System.AppContext/4.2.2.0": {
      "type": "referenceassembly",
      "serviceable": false,
      "sha512": ""
    },
    "System.Buffers/4.0.2.0": {
      "type": "referenceassembly",
      "serviceable": false,
      "sha512": ""
    },
    "System.Collections.Concurrent/4.0.15.0": {
      "type": "referenceassembly",
      "serviceable": false,
      "sha512": ""
    },
    "System.Collections/4.1.2.0": {
      "type": "referenceassembly",
      "serviceable": false,
      "sha512": ""
    },
    "System.Collections.Immutable/1.2.5.0": {
      "type": "referenceassembly",
      "serviceable": false,
      "sha512": ""
    },
    "System.Collections.NonGeneric/4.1.2.0": {
      "type": "referenceassembly",
      "serviceable": false,
      "sha512": ""
    },
    "System.Collections.Specialized/4.1.2.0": {
      "type": "referenceassembly",
      "serviceable": false,
      "sha512": ""
    },
    "System.ComponentModel.Annotations/4.3.1.0": {
      "type": "referenceassembly",
      "serviceable": false,
      "sha512": ""
    },
    "System.ComponentModel.DataAnnotations/4.0.0.0": {
      "type": "referenceassembly",
      "serviceable": false,
      "sha512": ""
    },
    "System.ComponentModel/4.0.4.0": {
      "type": "referenceassembly",
      "serviceable": false,
      "sha512": ""
    },
    "System.ComponentModel.EventBasedAsync/4.1.2.0": {
      "type": "referenceassembly",
      "serviceable": false,
      "sha512": ""
    },
    "System.ComponentModel.Primitives/4.2.2.0": {
      "type": "referenceassembly",
      "serviceable": false,
      "sha512": ""
    },
    "System.ComponentModel.TypeConverter/4.2.2.0": {
      "type": "referenceassembly",
      "serviceable": false,
      "sha512": ""
    },
    "System.Configuration/4.0.0.0": {
      "type": "referenceassembly",
      "serviceable": false,
      "sha512": ""
    },
    "System.Console/4.1.2.0": {
      "type": "referenceassembly",
      "serviceable": false,
      "sha512": ""
    },
    "System.Core/4.0.0.0": {
      "type": "referenceassembly",
      "serviceable": false,
      "sha512": ""
    },
    "System.Data.Common/4.2.2.0": {
      "type": "referenceassembly",
      "serviceable": false,
      "sha512": ""
    },
    "System.Data.DataSetExtensions/4.0.1.0": {
      "type": "referenceassembly",
      "serviceable": false,
      "sha512": ""
    },
    "System.Data/4.0.0.0": {
      "type": "referenceassembly",
      "serviceable": false,
      "sha512": ""
    },
    "System.Diagnostics.Contracts/4.0.4.0": {
      "type": "referenceassembly",
      "serviceable": false,
      "sha512": ""
    },
    "System.Diagnostics.Debug/4.1.2.0": {
      "type": "referenceassembly",
      "serviceable": false,
      "sha512": ""
    },
    "System.Diagnostics.DiagnosticSource/4.0.5.0": {
      "type": "referenceassembly",
      "serviceable": false,
      "sha512": ""
    },
    "System.Diagnostics.FileVersionInfo/4.0.4.0": {
      "type": "referenceassembly",
      "serviceable": false,
      "sha512": ""
    },
    "System.Diagnostics.Process/4.2.2.0": {
      "type": "referenceassembly",
      "serviceable": false,
      "sha512": ""
    },
    "System.Diagnostics.StackTrace/4.1.2.0": {
      "type": "referenceassembly",
      "serviceable": false,
      "sha512": ""
    },
    "System.Diagnostics.TextWriterTraceListener/4.1.2.0": {
      "type": "referenceassembly",
      "serviceable": false,
      "sha512": ""
    },
    "System.Diagnostics.Tools/4.1.2.0": {
      "type": "referenceassembly",
      "serviceable": false,
      "sha512": ""
    },
    "System.Diagnostics.TraceSource/4.1.2.0": {
      "type": "referenceassembly",
      "serviceable": false,
      "sha512": ""
    },
    "System.Diagnostics.Tracing/4.2.2.0": {
      "type": "referenceassembly",
      "serviceable": false,
      "sha512": ""
    },
    "System/4.0.0.0": {
      "type": "referenceassembly",
      "serviceable": false,
      "sha512": ""
    },
    "System.Drawing/4.0.0.0": {
      "type": "referenceassembly",
      "serviceable": false,
      "sha512": ""
    },
    "System.Drawing.Primitives/4.2.1.0": {
      "type": "referenceassembly",
      "serviceable": false,
      "sha512": ""
    },
    "System.Dynamic.Runtime/4.1.2.0": {
      "type": "referenceassembly",
      "serviceable": false,
      "sha512": ""
    },
    "System.Globalization.Calendars/4.1.2.0": {
      "type": "referenceassembly",
      "serviceable": false,
      "sha512": ""
    },
    "System.Globalization/4.1.2.0": {
      "type": "referenceassembly",
      "serviceable": false,
      "sha512": ""
    },
    "System.Globalization.Extensions/4.1.2.0": {
      "type": "referenceassembly",
      "serviceable": false,
      "sha512": ""
    },
    "System.IO.Compression.Brotli/4.2.2.0": {
      "type": "referenceassembly",
      "serviceable": false,
      "sha512": ""
    },
    "System.IO.Compression/4.2.2.0": {
      "type": "referenceassembly",
      "serviceable": false,
      "sha512": ""
    },
    "System.IO.Compression.FileSystem/4.0.0.0": {
      "type": "referenceassembly",
      "serviceable": false,
      "sha512": ""
    },
    "System.IO.Compression.ZipFile/4.0.5.0": {
      "type": "referenceassembly",
      "serviceable": false,
      "sha512": ""
    },
    "System.IO/4.2.2.0": {
      "type": "referenceassembly",
      "serviceable": false,
      "sha512": ""
    },
    "System.IO.FileSystem/4.1.2.0": {
      "type": "referenceassembly",
      "serviceable": false,
      "sha512": ""
    },
    "System.IO.FileSystem.DriveInfo/4.1.2.0": {
      "type": "referenceassembly",
      "serviceable": false,
      "sha512": ""
    },
    "System.IO.FileSystem.Primitives/4.1.2.0": {
      "type": "referenceassembly",
      "serviceable": false,
      "sha512": ""
    },
    "System.IO.FileSystem.Watcher/4.1.2.0": {
      "type": "referenceassembly",
      "serviceable": false,
      "sha512": ""
    },
    "System.IO.IsolatedStorage/4.1.2.0": {
      "type": "referenceassembly",
      "serviceable": false,
      "sha512": ""
    },
    "System.IO.MemoryMappedFiles/4.1.2.0": {
      "type": "referenceassembly",
      "serviceable": false,
      "sha512": ""
    },
    "System.IO.Pipes/4.1.2.0": {
      "type": "referenceassembly",
      "serviceable": false,
      "sha512": ""
    },
    "System.IO.UnmanagedMemoryStream/4.1.2.0": {
      "type": "referenceassembly",
      "serviceable": false,
      "sha512": ""
    },
    "System.Linq/4.2.2.0": {
      "type": "referenceassembly",
      "serviceable": false,
      "sha512": ""
    },
    "System.Linq.Expressions/4.2.2.0": {
      "type": "referenceassembly",
      "serviceable": false,
      "sha512": ""
    },
    "System.Linq.Parallel/4.0.4.0": {
      "type": "referenceassembly",
      "serviceable": false,
      "sha512": ""
    },
    "System.Linq.Queryable/4.0.4.0": {
      "type": "referenceassembly",
      "serviceable": false,
      "sha512": ""
    },
    "System.Memory/4.2.1.0": {
      "type": "referenceassembly",
      "serviceable": false,
      "sha512": ""
    },
    "System.Net/4.0.0.0": {
      "type": "referenceassembly",
      "serviceable": false,
      "sha512": ""
    },
    "System.Net.Http/4.2.2.0": {
      "type": "referenceassembly",
      "serviceable": false,
      "sha512": ""
    },
    "System.Net.HttpListener/4.0.2.0": {
      "type": "referenceassembly",
      "serviceable": false,
      "sha512": ""
    },
    "System.Net.Mail/4.0.2.0": {
      "type": "referenceassembly",
      "serviceable": false,
      "sha512": ""
    },
    "System.Net.NameResolution/4.1.2.0": {
      "type": "referenceassembly",
      "serviceable": false,
      "sha512": ""
    },
    "System.Net.NetworkInformation/4.2.2.0": {
      "type": "referenceassembly",
      "serviceable": false,
      "sha512": ""
    },
    "System.Net.Ping/4.1.2.0": {
      "type": "referenceassembly",
      "serviceable": false,
      "sha512": ""
    },
    "System.Net.Primitives/4.1.2.0": {
      "type": "referenceassembly",
      "serviceable": false,
      "sha512": ""
    },
    "System.Net.Requests/4.1.2.0": {
      "type": "referenceassembly",
      "serviceable": false,
      "sha512": ""
    },
    "System.Net.Security/4.1.2.0": {
      "type": "referenceassembly",
      "serviceable": false,
      "sha512": ""
    },
    "System.Net.ServicePoint/4.0.2.0": {
      "type": "referenceassembly",
      "serviceable": false,
      "sha512": ""
    },
    "System.Net.Sockets/4.2.2.0": {
      "type": "referenceassembly",
      "serviceable": false,
      "sha512": ""
    },
    "System.Net.WebClient/4.0.2.0": {
      "type": "referenceassembly",
      "serviceable": false,
      "sha512": ""
    },
    "System.Net.WebHeaderCollection/4.1.2.0": {
      "type": "referenceassembly",
      "serviceable": false,
      "sha512": ""
    },
    "System.Net.WebProxy/4.0.2.0": {
      "type": "referenceassembly",
      "serviceable": false,
      "sha512": ""
    },
    "System.Net.WebSockets.Client/4.1.2.0": {
      "type": "referenceassembly",
      "serviceable": false,
      "sha512": ""
    },
    "System.Net.WebSockets/4.1.2.0": {
      "type": "referenceassembly",
      "serviceable": false,
      "sha512": ""
    },
    "System.Numerics/4.0.0.0": {
      "type": "referenceassembly",
      "serviceable": false,
      "sha512": ""
    },
    "System.Numerics.Vectors/4.1.6.0": {
      "type": "referenceassembly",
      "serviceable": false,
      "sha512": ""
    },
    "System.ObjectModel/4.1.2.0": {
      "type": "referenceassembly",
      "serviceable": false,
      "sha512": ""
    },
    "System.Reflection.DispatchProxy/4.0.6.0": {
      "type": "referenceassembly",
      "serviceable": false,
      "sha512": ""
    },
    "System.Reflection/4.2.2.0": {
      "type": "referenceassembly",
      "serviceable": false,
      "sha512": ""
    },
    "System.Reflection.Emit/4.1.2.0": {
      "type": "referenceassembly",
      "serviceable": false,
      "sha512": ""
    },
    "System.Reflection.Emit.ILGeneration/4.1.1.0": {
      "type": "referenceassembly",
      "serviceable": false,
      "sha512": ""
    },
    "System.Reflection.Emit.Lightweight/4.1.1.0": {
      "type": "referenceassembly",
      "serviceable": false,
      "sha512": ""
    },
    "System.Reflection.Extensions/4.1.2.0": {
      "type": "referenceassembly",
      "serviceable": false,
      "sha512": ""
    },
    "System.Reflection.Metadata/1.4.5.0": {
      "type": "referenceassembly",
      "serviceable": false,
      "sha512": ""
    },
    "System.Reflection.Primitives/4.1.2.0": {
      "type": "referenceassembly",
      "serviceable": false,
      "sha512": ""
    },
    "System.Reflection.TypeExtensions/4.1.2.0": {
      "type": "referenceassembly",
      "serviceable": false,
      "sha512": ""
    },
    "System.Resources.Reader/4.1.2.0": {
      "type": "referenceassembly",
      "serviceable": false,
      "sha512": ""
    },
    "System.Resources.ResourceManager/4.1.2.0": {
      "type": "referenceassembly",
      "serviceable": false,
      "sha512": ""
    },
    "System.Resources.Writer/4.1.2.0": {
      "type": "referenceassembly",
      "serviceable": false,
      "sha512": ""
    },
    "System.Runtime.CompilerServices.Unsafe/4.0.6.0": {
      "type": "referenceassembly",
      "serviceable": false,
      "sha512": ""
    },
    "System.Runtime.CompilerServices.VisualC/4.1.2.0": {
      "type": "referenceassembly",
      "serviceable": false,
      "sha512": ""
    },
    "System.Runtime/4.2.2.0": {
      "type": "referenceassembly",
      "serviceable": false,
      "sha512": ""
    },
    "System.Runtime.Extensions/4.2.2.0": {
      "type": "referenceassembly",
      "serviceable": false,
      "sha512": ""
    },
    "System.Runtime.Handles/4.1.2.0": {
      "type": "referenceassembly",
      "serviceable": false,
      "sha512": ""
    },
    "System.Runtime.InteropServices/4.2.2.0": {
      "type": "referenceassembly",
      "serviceable": false,
      "sha512": ""
    },
    "System.Runtime.InteropServices.RuntimeInformation/4.0.4.0": {
      "type": "referenceassembly",
      "serviceable": false,
      "sha512": ""
    },
    "System.Runtime.InteropServices.WindowsRuntime/4.0.4.0": {
      "type": "referenceassembly",
      "serviceable": false,
      "sha512": ""
    },
    "System.Runtime.Intrinsics/4.0.1.0": {
      "type": "referenceassembly",
      "serviceable": false,
      "sha512": ""
    },
    "System.Runtime.Loader/4.1.1.0": {
      "type": "referenceassembly",
      "serviceable": false,
      "sha512": ""
    },
    "System.Runtime.Numerics/4.1.2.0": {
      "type": "referenceassembly",
      "serviceable": false,
      "sha512": ""
    },
    "System.Runtime.Serialization/4.0.0.0": {
      "type": "referenceassembly",
      "serviceable": false,
      "sha512": ""
    },
    "System.Runtime.Serialization.Formatters/4.0.4.0": {
      "type": "referenceassembly",
      "serviceable": false,
      "sha512": ""
    },
    "System.Runtime.Serialization.Json/4.0.5.0": {
      "type": "referenceassembly",
      "serviceable": false,
      "sha512": ""
    },
    "System.Runtime.Serialization.Primitives/4.2.2.0": {
      "type": "referenceassembly",
      "serviceable": false,
      "sha512": ""
    },
    "System.Runtime.Serialization.Xml/4.1.5.0": {
      "type": "referenceassembly",
      "serviceable": false,
      "sha512": ""
    },
    "System.Security.Claims/4.1.2.0": {
      "type": "referenceassembly",
      "serviceable": false,
      "sha512": ""
    },
    "System.Security.Cryptography.Algorithms/4.3.2.0": {
      "type": "referenceassembly",
      "serviceable": false,
      "sha512": ""
    },
    "System.Security.Cryptography.Csp/4.1.2.0": {
      "type": "referenceassembly",
      "serviceable": false,
      "sha512": ""
    },
    "System.Security.Cryptography.Encoding/4.1.2.0": {
      "type": "referenceassembly",
      "serviceable": false,
      "sha512": ""
    },
    "System.Security.Cryptography.Primitives/4.1.2.0": {
      "type": "referenceassembly",
      "serviceable": false,
      "sha512": ""
    },
    "System.Security.Cryptography.X509Certificates/4.2.2.0": {
      "type": "referenceassembly",
      "serviceable": false,
      "sha512": ""
    },
    "System.Security/4.0.0.0": {
      "type": "referenceassembly",
      "serviceable": false,
      "sha512": ""
    },
    "System.Security.Principal/4.1.2.0": {
      "type": "referenceassembly",
      "serviceable": false,
      "sha512": ""
    },
    "System.Security.SecureString/4.1.2.0": {
      "type": "referenceassembly",
      "serviceable": false,
      "sha512": ""
    },
    "System.ServiceModel.Web/4.0.0.0": {
      "type": "referenceassembly",
      "serviceable": false,
      "sha512": ""
    },
    "System.ServiceProcess/4.0.0.0": {
      "type": "referenceassembly",
      "serviceable": false,
      "sha512": ""
    },
    "System.Text.Encoding.CodePages/4.1.3.0": {
      "type": "referenceassembly",
      "serviceable": false,
      "sha512": ""
    },
    "System.Text.Encoding/4.1.2.0": {
      "type": "referenceassembly",
      "serviceable": false,
      "sha512": ""
    },
    "System.Text.Encoding.Extensions/4.1.2.0": {
      "type": "referenceassembly",
      "serviceable": false,
      "sha512": ""
    },
    "System.Text.Encodings.Web/4.0.5.0": {
      "type": "referenceassembly",
      "serviceable": false,
      "sha512": ""
    },
    "System.Text.Json/4.0.1.0": {
      "type": "referenceassembly",
      "serviceable": false,
      "sha512": ""
    },
    "System.Text.RegularExpressions/4.2.2.0": {
      "type": "referenceassembly",
      "serviceable": false,
      "sha512": ""
    },
    "System.Threading.Channels/4.0.2.0": {
      "type": "referenceassembly",
      "serviceable": false,
      "sha512": ""
    },
    "System.Threading/4.1.2.0": {
      "type": "referenceassembly",
      "serviceable": false,
      "sha512": ""
    },
    "System.Threading.Overlapped/4.1.2.0": {
      "type": "referenceassembly",
      "serviceable": false,
      "sha512": ""
    },
    "System.Threading.Tasks.Dataflow/4.6.5.0": {
      "type": "referenceassembly",
      "serviceable": false,
      "sha512": ""
    },
    "System.Threading.Tasks/4.1.2.0": {
      "type": "referenceassembly",
      "serviceable": false,
      "sha512": ""
    },
    "System.Threading.Tasks.Extensions/4.3.1.0": {
      "type": "referenceassembly",
      "serviceable": false,
      "sha512": ""
    },
    "System.Threading.Tasks.Parallel/4.0.4.0": {
      "type": "referenceassembly",
      "serviceable": false,
      "sha512": ""
    },
    "System.Threading.Thread/4.1.2.0": {
      "type": "referenceassembly",
      "serviceable": false,
      "sha512": ""
    },
    "System.Threading.ThreadPool/4.1.2.0": {
      "type": "referenceassembly",
      "serviceable": false,
      "sha512": ""
    },
    "System.Threading.Timer/4.1.2.0": {
      "type": "referenceassembly",
      "serviceable": false,
      "sha512": ""
    },
    "System.Transactions/4.0.0.0": {
      "type": "referenceassembly",
      "serviceable": false,
      "sha512": ""
    },
    "System.Transactions.Local/4.0.2.0": {
      "type": "referenceassembly",
      "serviceable": false,
      "sha512": ""
    },
    "System.ValueTuple/4.0.3.0": {
      "type": "referenceassembly",
      "serviceable": false,
      "sha512": ""
    },
    "System.Web/4.0.0.0": {
      "type": "referenceassembly",
      "serviceable": false,
      "sha512": ""
    },
    "System.Web.HttpUtility/4.0.2.0": {
      "type": "referenceassembly",
      "serviceable": false,
      "sha512": ""
    },
    "System.Windows/4.0.0.0": {
      "type": "referenceassembly",
      "serviceable": false,
      "sha512": ""
    },
    "System.Xml/4.0.0.0": {
      "type": "referenceassembly",
      "serviceable": false,
      "sha512": ""
    },
    "System.Xml.Linq/4.0.0.0": {
      "type": "referenceassembly",
      "serviceable": false,
      "sha512": ""
    },
    "System.Xml.ReaderWriter/4.2.2.0": {
      "type": "referenceassembly",
      "serviceable": false,
      "sha512": ""
    },
    "System.Xml.Serialization/4.0.0.0": {
      "type": "referenceassembly",
      "serviceable": false,
      "sha512": ""
    },
    "System.Xml.XDocument/4.1.2.0": {
      "type": "referenceassembly",
      "serviceable": false,
      "sha512": ""
    },
    "System.Xml.XmlDocument/4.1.2.0": {
      "type": "referenceassembly",
      "serviceable": false,
      "sha512": ""
    },
    "System.Xml.XmlSerializer/4.1.2.0": {
      "type": "referenceassembly",
      "serviceable": false,
      "sha512": ""
    },
    "System.Xml.XPath/4.1.2.0": {
      "type": "referenceassembly",
      "serviceable": false,
      "sha512": ""
    },
    "System.Xml.XPath.XDocument/4.1.2.0": {
      "type": "referenceassembly",
      "serviceable": false,
      "sha512": ""
    },
    "WindowsBase/4.0.0.0": {
      "type": "referenceassembly",
      "serviceable": false,
      "sha512": ""
    }
  }
}